病院ID,地域名,都道府県,std_region_code,医療機関名,郵便番号,住所,院長,院長URL,総ベッド数,急性期ベッド数,医療機関群,担当者,提出日
ID-135,九州,福岡,40203,聖マリア病院,830-8543,福岡県久留米市津福本町422,島 弘志,http://www.st-mary-med.or.jp/hospital/goaisatsu.php,1109,834,Ⅲ群,121,140612
ID-137,九州,福岡,40205,飯塚病院,820-8505,福岡県飯塚市芳雄町3-83,増本 陽秀,http://aih-net.com/about/hospital/,1058,838,Ⅲ群,121,140612
ID-1356,九州,福岡,40106,財団法人平成紫川会　小倉記念病院,802-8555,福岡県北九州市小倉北区貴船町1-1,永田 泉,http://www.kokurakinen.or.jp/byoin/message/,658,658,Ⅲ群,121,140612
ID-1405,九州,鹿児島,46201,鹿児島市立病院,892-8580,鹿児島県鹿児島市加治屋町20-17,坪内　博仁,http://www.kch.kagoshima.kagoshima.jp/about/aisatsu.html,647,647,Ⅲ群,121,140612
ID-1391,九州,大分,44209,高田中央病院,879-0627,大分県豊後高田市新地1176-1,小田　孝明,http://www.takachuo.com/modules/greetings/index.php?content_id=1,87,81,Ⅲ群,226,141027
ID-2058,九州,鹿児島,46219,いちき串木野市医師会立　脳神経外科センター,896-0052,鹿児島県いちき串木野市上名5391?3,下鶴　哲郎,,64,31,Ⅲ群,226,141027
ID-1531,九州,福岡,40230,医療法人恵真会　渡辺整形外科病院,819-1113,福岡県糸島市前原1811-1,牧　信哉,http://watanabe-hp.org/outline/,59,21,Ⅲ群,226,141027
ID-1355,九州,福岡,40106,北九州市立医療センター,802-0077,福岡県北九州市小倉北区馬借2-1-1,豊島　里志,https://www.city.kitakyushu.lg.jp/page/hospital/center/info/index.html,585,565,Ⅲ群,121,140628
ID-697,九州,大分,44201,大分県立病院,870-8511,大分県大分市大字豊饒476,田代 英哉,http://hospital.pref.oita.jp/intro_president/,566,562,Ⅲ群,121,140628
ID-715,九州,沖縄,47213,沖縄県立中部病院,904-2293,沖縄県うるま市字宮里281,松本 廣嗣,http://www.hosp.pref.okinawa.jp/chubu/information/greeting.html,550,550,Ⅲ群,121,140628
ID-675,九州,福岡,40106,健和会　大手町病院,803-8543,福岡県北九州市小倉北区大手町15-1,西中　徳治,,527,419,Ⅲ群,121,140628
ID-338,九州,長崎,42205,独立行政法人国立病院機構　長崎医療センター,856-8562,長崎県大村市久原2-1001-1,江崎 宏典,http://www.nagasaki-mc.jp/content/about/aisatu.html,643,610,Ⅲ群,121,140620
ID-1403,九州,宮崎,45201,県立宮崎病院,880-8510,宮崎県宮崎市北高松町5-30,豊田　清一,http://kenritsu-miyazakibyouin.jp/outline/staff.html,622,580,Ⅲ群,121,140620
ID-661,九州,福岡,40218,医療法人　徳洲会　福岡徳洲会病院,816-0864,福岡県春日市須玖北4-5,中熊　秀喜,http://www.f-toku.jp/introduction/gaiyo.html,600,600,Ⅲ群,121,140620
ID-343,九州,長崎,42202,（総）佐世保市立総合病院,857-8511,長崎県佐世保市平瀬町9-3,江口　勝美,http://www.hospital.sasebo.nagasaki.jp/news/2014newyeargreeting/,594,574,Ⅲ群,121,140620
ID-1357,九州,福岡,40223,独立行政法人国立病院機構　福岡東医療センター,811-3195,福岡県古賀市千鳥1-1-1,上野　道雄,http://www.fe-med.jp/info/aisatu.html,525,367,Ⅲ群,121,140706
ID-330,九州,福岡,40212,医療法人社団高邦会高木病院,831-0016,福岡県大川市大字酒見141-11,岩坂　剛,http://takagi.kouhoukai.or.jp/profile/index.html,506,341,Ⅲ群,121,140706
ID-1525,九州,福岡,40131,医療法人　原土井病院,813-0025,福岡県福岡市東区青葉6-40-8,小柳　左門,http://www.haradoi-hospital.com/about/index.html,498,117,Ⅲ群,121,140706
ID-1394,九州,大分,44202,独立行政法人国立病院機構　別府医療センター,874-0011,大分県別府市大字内竈1473,武藤　庸一,http://www.beppu-iryou.jp/goannai/aisatsu/index.html,494,454,Ⅲ群,121,140706
ID-710,九州,沖縄,47201,地方独立行政法人　那覇市立病院,902-8511,沖縄県那覇市古島2-31-1,照喜名　重一,http://www.nch.naha.okinawa.jp/touin/aisatu.html,470,470,Ⅲ群,121,140706
ID-324,九州,福岡,40133,国家公務員共済組合連合会　浜の町病院,810-8539,福岡県福岡市中央区舞鶴3-5-27,一宮　仁,http://www.hamanomachi.jp/gaiyou/aisatsu.html,466,466,Ⅲ群,121,140706
ID-659,九州,福岡,40135,社会医療法人財団白十字会　白十字病院,819-0025,福岡県福岡市西区石丸3-2-1,城崎　洋,http://www.fukuoka.hakujyujikai.or.jp/about/message.html,466,265,Ⅲ群,121,140712
ID-346,九州,熊本,43100,熊本市立熊本市民病院,862-8505,熊本県熊本市湖東1-1-60,髙田　明,http://www.cityhosp-kumamoto.jp/about/,460,460,Ⅲ群,121,140712
ID-335,九州,佐賀,41201,佐賀県医療センター好生館,840-8571,佐賀県佐賀市水ヶ江1-12-9,樗木 等,https://www.koseikan.jp/about/greeting/index.html,453,438,Ⅲ群,121,140712
ID-1352,九州,福岡,40107,独立行政法人　労働者健康福祉機構　九州労災病院,800-0296,福岡県北九州市小倉南区曽根北町1番1号,糸満　盛憲,http://www.kyushuh.rofuku.go.jp/about/inchou.html,450,434,Ⅲ群,121,140712
ID-701,九州,鹿児島,46201,今給黎総合病院,892-0852,鹿児島県鹿児島市下竜尾町4-16,昇 卓夫,http://imakiire.jp/about/concept.html,450,438,Ⅲ群,121,140712
ID-698,九州,宮崎,45201,一般財団法人潤和リハビリテーション振興財団　潤和会記念病院,880-2112,宮崎県宮崎市大字小松1119,鶴田 和仁,http://www.junwakai.com/aboutus/outline_top/outline_01,446,199,Ⅲ群,121,140712
ID-331,九州,福岡,40108,製鉄記念八幡病院,805-8508,福岡県北九州市八幡東区春の町1-1-1,石束　隆男 ,http://www.ns.yawata-mhp.or.jp/syoukai/aisatsu.html,425,409,Ⅲ群,121,140712
ID-336,九州,佐賀,41209,独立行政法人国立病院機構　嬉野医療センター,843-0393,佐賀県嬉野市嬉野町大字下宿丙2436,河部　庸次郎,http://www.uresino.go.jp/hospital/inchou/,424,424,Ⅲ群,121,140712
ID-1358,九州,福岡,40134,独立行政法人国立病院機構　九州がんセンター,811-1395,福岡県福岡市南区野多目3-1-1,岡村 健,http://www.ia-nkcc.jp/info/center/greeting.html,411,411,Ⅲ群,121,140719
ID-687,九州,熊本,43100,熊本機能病院,860-8518,熊本県熊本市山室6-8-1,中島　英親,http://www.juryo.or.jp/information/group.html,410,201,Ⅲ群,121,140719
ID-691,九州,熊本,43202,独立行政法人労働者健康福祉機構熊本労災病院,866-8533,熊本県八代市竹原町1670,工藤　惇三,http://kumamotoh.rofuku.go.jp/guide/aisatsu.html,410,410,Ⅲ群,121,140719
ID-340,九州,長崎,42201,地方独立行政法人長崎市立病院機構　長崎みなとメディカルセンター　市民病院,850-8555,長崎県長崎市新地町6-39,兼松　隆之,http://shibyo.nmh.jp/view_detail/topic_detail/topiccategory_id:11,408,408,Ⅲ群,121,140719
ID-1387,九州,大分,44201,大分市医師会立アルメイダ病院,870-1133,大分県大分市大字宮崎1509-2,杉村　忠彦,http://www.almeida-hospital.com/greeting.html,406,385,Ⅲ群,121,140719
ID-1349,九州,福岡,40108,福岡県済生会八幡総合病院,805-0050,福岡県北九州市八幡東区春ノ町5-9-27,北村　昌之 ,http://www.yahata.saiseikai.or.jp/info/message/,403,389,Ⅲ群,121,140719
ID-1536,九州,福岡,40107,独立行政法人国立病院機構小倉医療センター,802-8533,福岡県北九州市小倉南区春ヶ丘10-1,岡嶋 　泰一郎,http://www.kokura-hp.jp/etc/byoin.html,400,350,Ⅲ群,121,140724
ID-1333,九州,福岡,40133,医療法人　佐田厚生会　佐田病院,810-0004,福岡県福岡市中央区渡辺通2-4-28,佐田　正之,http://www.sada.or.jp/introduction/about/,180,172,Ⅲ群,221,140709
ID-2204,九州,佐賀,41203,今村病院,841-0061,佐賀県鳥栖市轟木町1523-6,平田　祐造,http://www.josuikai.or.jp/about/outline.php,179,80,Ⅲ群,221,140709
ID-1365,九州,長崎,42201,医療法人　光晴会病院,852-8053,長崎県長崎市葉山1-3-12,大坪　俊夫,http://www.kouseikai.org/hospital/gaiyo/basic-information,179,179,Ⅲ群,221,140709
ID-1377,九州,熊本,43213,宇城総合病院,869-0502,熊本県宇城市松橋町松橋1455-1,江上　寛,http://www.reimeikai.jp/about/summary/,179,120,Ⅲ群,221,140709
ID-1386,九州,大分,44201,大分三愛メディカルセンター,870-1151,大分県大分市大字市1213,森　義顕,http://san-ai-group.org/publics/index/67/,179,138,Ⅲ群,221,140709
ID-2059,九州,鹿児島,46220,県立　薩南病院,897-1123,鹿児島県南さつま市加世田高橋1968?4,古川　重治,http://hospital.pref.kagoshima.jp/satsunan/information/greeting.html,175,146,Ⅲ群,221,140709
ID-693,九州,大分,44201,社会医療法人財団天心堂へつぎ病院,879-7761,大分県大分市大字中戸次字二本木5956,首藤　治,http://www.tenshindo.org/web/medical/hetsugi/internal-medicine.html,173,131,Ⅲ群,221,140709
ID-139,九州,佐賀,41201,独立行政法人地域医療機能推進機構　佐賀中部病院,849-8522,佐賀県佐賀市兵庫南3-8-1,浅見　昭彦,http://saga.jcho.go.jp/%E7%97%85%E9%99%A2%E9%95%B7%E6%8C%A8%E6%8B%B6/,160,152,Ⅲ群,222,140719
ID-143,九州,熊本,43215,独立行政法人地域医療機能推進機構　天草中央総合病院,863-0033,熊本県天草市東町101,竹口　東一郎,http://amakusa.jcho.go.jp/%E5%A4%96%E7%A7%91/#ishi,137,137,Ⅲ群,223,140711
ID-1402,九州,宮崎,45206,医療法人誠和会和田病院,883-0051,宮崎県日向市向江町1-196-1,和田　徹也,http://www.fc.wada-hosp.or.jp/about/article/index.html,136,54,Ⅲ群,223,140711
ID-1417,九州,鹿児島,46225,医療法人　青雲会　青雲会病院,899-5431,鹿児島県姶良市西餅田3011,島内　正樹,http://www.seiunkaibyouin.jp/outline/directors_greeting/,136,100,Ⅲ群,223,140711
ID-2055,九州,佐賀,41206,一般社団法人　巨樹の会　新武雄病院,843-0024,佐賀県武雄市武雄町大字富岡12628,西田　憲記,http://www.shintakeo-hp.or.jp/message.php,135,135,Ⅲ群,223,140711
ID-356,九州,鹿児島,46204,社会医療法人聖医会サザン・リージョン病院,898-0011,鹿児島県枕崎市緑町220,牧角　寛郎,http://southernregion.jp/modules/bulletin/index.php?storytopic=4&storynum=5&tmid=11,131,62,Ⅲ群,223,140711
ID-1392,九州,大分,44211,医療法人明徳会 佐藤第一病院,879-0454,大分県宇佐市大字法鏡寺77-1,中原 成浩,http://sato-d1.com/abouthospital01.htm,130,80,Ⅲ群,223,140711
ID-704,九州,鹿児島,46203,恒心会おぐら病院,893-0023,鹿児島県鹿屋市笠之原町27番22号,小倉　修,http://www.koshinkai.or.jp/about/index.html,129,129,Ⅲ群,223,140711
ID-2169,九州,鹿児島,46218,国分生協病院,899-4332,鹿児島県霧島市国分中央3丁目22?18,山下　義仁,http://kokubu-seikyo.jp/about/outline.html,129,90,Ⅲ群,223,140711
ID-1543,九州,熊本,43215,天草第一病院,863-0013,熊本県天草市今釜新町3413-6,永野 博人,http://www.eijukai-amakusa.com/hospital/outline.html,128,59,Ⅲ群,223,140711
ID-1342,九州,福岡,40203,くるめ病院,839-0865,福岡県久留米市新合川2-2-18,荒木　靖三,http://www.uproad.ne.jp/kurume/gakujyutu/shinnikyokushoukai.htm,85,71,Ⅲ群,226,141010
ID-1545,九州,大分,44204,日田中央病院,877-0012,大分県日田市淡窓2-5-17,渡邉　俊治,http://www.kangikai.or.jp/cms/aisatsu.php,85,77,Ⅲ群,226,141010
ID-2054,九州,福岡,40202,杉循環器科内科病院,837-0916,福岡県大牟田市田隈950?1,杉　健三,http://www.sugi-hosp.jp/hospital/greeting.html,81,81,Ⅲ群,226,141010
ID-703,九州,鹿児島,46201,相良病院,892-0833,鹿児島県鹿児島市松原町3-31,雷　哲明,http://www.sagara.or.jp/doctor/index.php/category/nyusen/,80,56,Ⅲ群,226,141010
ID-1419,九州,沖縄,47214,宮古島徳洲会病院,906-0014,沖縄県宮古島市平良字松原552-1,酒井　英二,http://www.miyatoku.jp/info/doctors.html,80,50,Ⅲ群,226,141010
ID-1361,九州,佐賀,41206,副島整形外科病院,843-0024,佐賀県武雄市武雄町大字富岡7641-1,森澤　佳三,http://soejimaseikei.or.jp/byouin_shisetu.html#b_shisetsu_gaiyou,58,48,Ⅲ群,226,141010
ID-1327,九州,福岡,40343,医療法人社団日晴会久恒病院,811-2204,福岡県糟屋郡志免町田富152-1,原　正文,http://hisatsune-hp.jp/dr.htm,47,31,Ⅲ群,226,141010
ID-1385,九州,大分,44201,河野脳神経外科病院,870-0127,大分県大分市大字森町字無田々通250-7,河野　義久,http://www.kawano-nshp.or.jp/outline/index.html,40,30,Ⅲ群,226,141010
ID-1397,九州,宮崎,45201,南部病院,880-0916,宮崎県宮崎市大字恒久891-14,山成　英夫,http://www.nanbuhp.or.jp/hospital/greeting,73,73,Ⅲ群,311,141209
ID-1370,九州,長崎,42204,医療法人祥仁会　西諫早病院,854-0063,長崎県諫早市貝津町3015,千葉　憲哉,http://www.syoujinkai.com/company/index.html,71,61,Ⅲ群,311,141209
ID-2057,九州,鹿児島,46203,徳田脳神経外科病院,893-0011,鹿児島県鹿屋市打馬1丁目11248?1,諸木　浩一,https://www.omega.ne.jp/~tokuda-hp/aisatsu.html,70,34,Ⅲ群,311,141209
ID-1558,九州,沖縄,47201,医療法人　禄寿会　小禄病院,901-0152,沖縄県那覇市字小禄547-1,新城　和明,http://rokujukai.or.jp/oroku/greeting.html,70,60,Ⅲ群,311,141209
ID-2166,九州,大分,44212,医療法人帰巖会　帰巖会　みえ病院,879-7111,大分県豊後大野市三重町赤嶺1250?1,松山　幸弘,http://www.kigankai.or.jp/corp_head_doctor,70,45,Ⅲ群,311,141209
ID-1540,九州,長崎,42207,医療法人　医理会　柿添病院,859-5152,長崎県平戸市鏡川町278,柿添 圭嗣,http://www.kakizoehospital.or.jp/incho/index.htm,111,52,Ⅲ群,225,141020
ID-1393,九州,大分,44211,宇佐高田医師会病院,872-0102,大分県宇佐市大字南宇佐635,柏木　孝仁,http://www.utihp.jp/about-greetings-director.html,110,110,Ⅲ群,225,141020
ID-1366,九州,長崎,42201,医療法人徳洲会　長崎北徳洲会病院,852-8061,長崎県長崎市滑石1-12-5,堀内　芳夫,http://www.tokushukai.or.jp/hsp/nagasakikita/index.html,108,51,Ⅲ群,225,141020
ID-682,九州,長崎,42214,医療法人栄和会　泉川病院,859-1504,長崎県南島原市深江町丁2405,泉川　欣一,http://www.izumikawa.or.jp/index.php/c_Main/showPg41,108,108,Ⅲ群,226,141003
ID-1400,九州,宮崎,45201,宮崎善仁会病院,880-0834,宮崎県宮崎市新別府町江口950-1,関屋　亮,http://www.m-zenjin.or.jp/01_guide/,106,106,Ⅲ群,226,141003
ID-1542,九州,熊本,43100,成尾整形外科病院,862-0958,熊本県熊本市中央区岡田町12-24,成尾 政一郎,http://naruoseikei.com/outline/gaiyou.html,103,73,Ⅲ群,226,141003
ID-1369,九州,長崎,42204,医療法人三佼会　宮崎病院,854-0066,長崎県諫早市久山町1575-1,0,,102,102,Ⅲ群,226,141003
ID-1343,九州,福岡,40203,神代病院,830-1102,福岡県久留米市北野町八重亀382-1,中村　栄治,http://kumashiro-hospital.or.jp/about/about.html,100,29,Ⅲ群,226,141003
ID-1629,九州,福岡,40384,遠賀中間医師会おんが病院,811-4342,福岡県遠賀郡遠賀町大字尾崎1725-2,矢田　親一朗,http://www.onga-hp.jp/005_prof.php,100,100,Ⅲ群,226,141003
ID-1398,九州,宮崎,45201,金丸脳神経外科病院,880-0041,宮崎県宮崎市池内町八幡田803,金丸　禮三,http://www.kanemarunougeka.or.jp/contents/gaiyou.html,100,52,Ⅲ群,226,141003
ID-2164,九州,熊本,43100,社会医療法人芳和会　くわみず病院,862-0954,熊本県熊本市中央区神水1丁目14?41,池上あずさ,http://www.kuwamizu.jp/p02.html,100,94,Ⅲ群,226,141003
ID-1373,九州,長崎,42213,公立新小浜病院,854-0593,長崎県雲仙市小浜町南本町93,森内　良三 ,http://obama-byoin.com/?page_id=37,150,90,Ⅲ群,225,141013
ID-1555,九州,鹿児島,46224,県立　北薩病院,895-2526,鹿児島県伊佐市大口宮人502-4,小寺　顕一,http://hospital.pref.kagoshima.jp/hokusatsu/information/greeting.html,150,136,Ⅲ群,225,141013
ID-1556,九州,鹿児島,46203,県民健康プラザ鹿屋医療センター,893-0013,鹿児島県鹿屋市札元1-8-8,日高　史郎,http://hospital.pref.kagoshima.jp/kanoya/information/greeting.html,150,150,Ⅲ群,225,141013
ID-656,九州,福岡,40220,宗像医師会病院,811-3431,福岡県宗像市田熊5-5-3,大塚 毅,http://www.mmah.jp/about/message.html,146,146,Ⅲ群,225,141013
ID-1557,九州,鹿児島,46210,独立行政法人国立病院機構　指宿医療センター,891-0403,鹿児島県指宿市十二町4145,田中 康博,http://ibusukimc.jp/?page_id=361,143,139,Ⅲ群,225,141013
ID-1344,九州,福岡,40544,姫野病院,834-0115,福岡県八女郡広川町大字新代2316,姫野 亜紀裕,http://www.himeno-hp.jp/hospital/greeting.html,140,82,Ⅲ群,225,141013
ID-1378,九州,熊本,43215,天草地域医療センター,863-0046,熊本県天草市亀場町食場854-1,原田　和則,http://www.amed.jp/mc/agreeting.php,210,210,Ⅲ群,223,140808
ID-1330,九州,福岡,40343,上野外科胃腸科病院,811-2202,福岡県糟屋郡志免町志免2-10-20,田上 和夫,http://www.uenohospital.jp/hospital_greeting.html,36,36,Ⅲ群,223,140808
ID-1332,九州,福岡,40223,医療法人　豊資会　加野病院,811-0120,福岡県粕屋郡新宮町中央駅前１-２-１,恩塚 雅子,http://www.houshikai.or.jp/kano/hospital/greet.html,30,30,Ⅲ群,223,140808
ID-341,九州,長崎,42205,市立大村市民病院,856-8561,長崎県大村市古賀島町133-22,谷岡 芳人,http://www.omh-jadecom.jp/html/gaiyou07/index_4.html,207,167,Ⅲ群,223,140808
ID-686,九州,長崎,42201,社会福祉法人恩賜財団済生会支部　済生会長崎病院,850-0003,長崎県長崎市片淵2-5-1,澄川 耕二,http://www.nsaisei.or.jp/contents/hospital_info/message.php,205,201,Ⅲ群,223,140808
ID-689,九州,熊本,43100,社会医療法人社団熊本丸田会　熊本整形外科病院,862-0976,熊本県熊本市九品寺1-15-7,坂口 満,http://www.marutakai.or.jp/kumasei/information/greeting.php,204,192,Ⅲ群,223,140808
ID-1389,九州,大分,44204,大分県済生会日田病院,877-1292,大分県日田市大字三和643-7,西田 敬,http://saiseikai.hita.oita.jp/contents/fromdirector,204,164,Ⅲ群,223,140808
ID-1376,九州,熊本,43100,くまもと森都総合病院,862-8655,熊本県熊本市新屋敷1-17-27,藤山 重俊,http://www.k-shinto.or.jp/guide/greeting/,203,195,Ⅲ群,223,140808
ID-1414,九州,鹿児島,46213,社会医療法人　義順顕彰会　田上病院,891-3101,鹿児島県西之表市西之表7463,髙尾　尊身,http://www.tanoue-hospital.jp/about/message/,202,138,Ⅲ群,223,140808
ID-323,九州,福岡,40132,福岡市民病院,812-0046,福岡県福岡市博多区吉塚本町13-1,竹中 賢治,http://www.fcho.jp/shiminhp/byoin/aisatsu.html#pagetit,200,200,Ⅲ群,223,140808
ID-664,九州,福岡,40203,社会医療法人　天神会　古賀病院21,839-0801,福岡県久留米市宮ノ陣3-3-8,平松 義博,http://www.tenjinkai.or.jp/koga21/about/kh21_director.html,200,154,Ⅲ群,223,140822
ID-1374,九州,熊本,43100,一般財団法人杏仁会江南病院,862-0970,熊本県熊本市渡鹿5-1-37,内賀嶋 英明,http://www.kyouninkai.jp/konan/ishishoukai.html,200,83,Ⅲ群,223,140822
ID-712,九州,沖縄,47209,公益社団法人　北部地区医師会　北部地区医師会病院,905-8611,沖縄県名護市字宇茂佐1712-3,諸喜田 林,http://www.hokubuishikai-hp.or.jp/publics/index/8/,200,200,Ⅲ群,223,140822
ID-1383,九州,熊本,43505,球磨郡公立多良木病院,868-0500,熊本県球磨郡多良木町大字多良木4210,大島 茂樹,http://www.taragihp.jp/greeting.html,199,180,Ⅲ群,223,140822
ID-1552,九州,鹿児島,46530,医療法人　徳洲会　徳之島徳洲会病院,891-7101,鹿児島県大島郡徳之島町亀津7588,藤田 安彦,http://www.tokunoshima-tokushukai.com/about/staff.html,199,120,Ⅲ群,223,140822
ID-2053,九州,福岡,40229,医療法人　弘恵会　ヨコクラ病院,839-0215,福岡県みやま市高田町濃施394,横倉 義武,http://www.yokokura.jp/hosp-summary/greeting,199,130,Ⅲ群,223,140822
ID-729,九州,福岡,40137,福西会病院,814-0171,福岡県福岡市早良区野芥1-2-36,川原 克信,http://fukuseikai-hp.com/about/greeting.html#intyou,198,198,Ⅲ群,223,140822
ID-2168,九州,宮崎,45206,社会医療法人泉和会　千代田病院,883-0052,宮崎県日向市日知屋古田町88,千代反田 晋,http://www.chiyoda-hp.jp/greeting,198,143,Ⅲ群,223,140822
ID-136,九州,福岡,40203,独立行政法人地域医療機能推進機構　久留米総合病院,830-0013,福岡県久留米市櫛原町21,田中 眞紀,http://kurume-general-hosp.com/information/about/summary.html,195,187,Ⅲ群,223,140822
ID-1348,九州,福岡,40204,独立行政法人地域医療機能推進機構　福岡ゆたか中央病院,822-0001,福岡県直方市大字感田523-5,野田 晏宏,,195,124,Ⅲ群,223,140822
ID-665,九州,福岡,40211,筑後市立病院,833-0041,福岡県筑後市大字和泉917-1,吉田　正,http://www.chikugocity-hp.jp/outline/greeting.html,231,215,Ⅲ群,223,140801
ID-1341,九州,福岡,40210,医療法人社団慶仁会川崎病院,834-0024,福岡県八女市津江538,稗田　寛,http://www.kawasaki-h.jp/diagnosis/orthopedic/dr-card.html,215,86,Ⅲ群,223,140801
ID-707,九州,鹿児島,46208,出水総合医療センター,899-0131,鹿児島県出水市明神町520,瀬戸　弘,http://hospital-city.izumi.kagoshima.jp/aisatsu/index.html,215,163,Ⅲ群,223,140801
ID-709,九州,沖縄,47201,医療法人おもと会　大浜第一病院,900-0005,沖縄県那覇市天久1000番地,知念　弘,http://www.omotokai.or.jp/ohama1/information/president/index.html,214,173,Ⅲ群,223,140801
ID-1329,九州,福岡,40349,福岡青洲会病院,811-2316,福岡県糟屋郡粕屋町長者原西4丁目11番8号,髙山　昌紀,http://www.f-seisyukai.jp/about/index.html,213,137,Ⅲ群,223,140801
ID-671,九州,福岡,40382,福岡新水巻病院,807-0051,福岡県遠賀郡水巻町立屋敷1-2-1,藤井　茂,http://www.f-shinmizumaki.jp/introhospital/d_g.html,212,212,Ⅲ群,223,140801
ID-658,九州,福岡,40133,福岡市立こども病院・感染症センター,810-0063,福岡県福岡市中央区唐人町2-5-1,福重　淳一郎,http://www.fcho.jp/childhp/greeting.html,210,210,Ⅲ群,223,140801
ID-679,九州,佐賀,41202,社会福祉法人　恩賜財団　済生会唐津病院,847-0852,佐賀県唐津市元旗町817,園田 孝志,http://www.saiseikai-karatsu.com/02_intyou/2007/intyou3.htm,193,148,Ⅲ群,223,140829
ID-1372,九州,長崎,42201,社会福祉法人　十善会病院,850-0905,長崎県長崎市籠町7-18,笠 伸年,http://www.juzenkai-hospital.or.jp/outline/philosophy.html,193,173,Ⅲ群,223,140829
ID-1418,九州,鹿児島,46490,肝属郡医師会立病院,893-2301,鹿児島県肝属郡錦江町神川135-3,落司 孝一,http://www.kimotsuki-cdh.jp/referral/director,190,42,Ⅲ群,223,140829
ID-705,九州,鹿児島,46203,池田病院,893-0024,鹿児島県鹿屋市下祓川町1830,池田 大輔,http://www.ikeda-hp.com/ikedahp/foreign/junkankika/news.html,189,52,Ⅲ群,223,140829
ID-1411,九州,鹿児島,46201,鹿児島厚生連病院,890-0061,鹿児島県鹿児島市天保山町22-25,前之原 茂穂,http://www.kago-ksr.or.jp/hp/gaiyo/gaiyo01,184,184,Ⅲ群,223,140829
ID-1345,九州,福岡,40207,長田病院,832-0059,福岡県柳川市下宮永町523-1,木下 正治,http://www.seiwakai.info/hospital/greeting.php,182,84,Ⅲ群,223,140829
ID-706,九州,鹿児島,46206,出水郡医師会広域医療センター,899-1611,鹿児島県阿久根市赤瀬川4513,立石 繁宜,http://www.akunehp.com/,216,166,Ⅲ群,223,140829
ID-1380,九州,熊本,43208,山鹿市民医療センター,861-0593,熊本県山鹿市大字山鹿511,豊永　政和,http://yamaga-medical-center.jp/introduction/summary.php,186,157,Ⅲ群,111,150304
ID-1546,九州,宮崎,45202,都城市郡医師会病院,885-0062,宮崎県都城市大岩田町5822-3,重平 正文,http://www.mmah.or.jp/html/doctor.html,172,172,Ⅲ群,223,140905
ID-1420,九州,沖縄,47348,与那原中央病院,901-1303,沖縄県島尻郡与那原町字与那原2905,平良 博史,http://ycb.or.jp/01_byoinsyokai/incho.htm,170,123,Ⅲ群,223,140905
ID-688,九州,熊本,43100,高野病院,862-0924,熊本県熊本市帯山4-2-88,山田 一隆,http://www.takano-hospital.jp/information/aisatsu.html,166,148,Ⅲ群,223,140905
ID-1339,九州,福岡,40134,社会医療法人　喜悦会那珂川病院,811-1345,福岡県福岡市南区向新町2-17-17,下川 敏弘,http://www.nakagawa-hp.com/about/president.html,162,88,Ⅲ群,223,140905
ID-1541,九州,熊本,43100,福田病院,860-0004,熊本県熊本市新町2-2-6,河上 祥一,http://www.fukuda-hp.or.jp/byouin-gaiyou.html,161,161,Ⅲ群,223,140905
ID-1551,九州,鹿児島,46505,屋久島徳洲会病院,891-4205,鹿児島県熊毛郡屋久島町宮之浦2467,山本 晃司,http://yakutoku.com/guide.html,140,39,Ⅲ群,223,140905
ID-1382,九州,熊本,43100,熊本市立植木病院,861-0136,熊本県熊本市植木町岩野285-29,内野 良仁,http://www.ueki-hsp.jp/hospital/index.html,139,100,Ⅲ群,223,140905
ID-1399,九州,宮崎,45201,宮崎生協病院,880-0824,宮崎県宮崎市大島町天神前1171,遠藤　豊,http://m-seikyouhp.com/hospital/aisatsu.html,124,94,Ⅲ群,225,141001
ID-1326,九州,福岡,40132,社会医療法人社団至誠会　木村病院,812-0044,福岡県福岡市博多区千代2-13-19,永渕　幸寿,http://www.city.fukuoka.med.or.jp/map/a/ha/a1.htm,121,75,Ⅲ群,225,141001
ID-1337,九州,福岡,40137,福岡市医師会成人病センター,814-0005,福岡県福岡市早良区祖原15-7,壁村 哲平,http://fma-hp.or.jp/hospital/greeting/index.html,120,120,Ⅲ群,225,141001
ID-1548,九州,鹿児島,46201,鹿児島赤十字病院,891-0133,鹿児島県鹿児島市平川町2545,松田　剛正,http://www.kagoshima-med.jrc.or.jp/aboutus/index.html,120,120,Ⅲ群,225,141001
ID-1384,九州,大分,44201,大分記念病院,870-0854,大分県大分市羽屋9-5,向井　隆一郎,http://oitamh.jp/doctor,118,74,Ⅲ群,225,141001
ID-1413,九州,鹿児島,46204,医療法人　厚生会　小原病院,898-0003,鹿児島県枕崎市折口町109,小原　壮一,http://www.synapse.ne.jp/koseikai/comment.html,118,83,Ⅲ群,225,141001
ID-2158,九州,福岡,40212,医療法人　福田病院,831-0005,福岡県大川市向島1717?3,福田　弘,http://www.fukuda-hp.net/about/aisatsu/,113,43,Ⅲ群,225,141001
ID-1363,九州,長崎,42201,社会医療法人　春回会井上病院,850-0045,長崎県長崎市宝町6-12,泉野　清宏,http://www.shunkaikai.jp/inoue/intervention/doctors/,112,104,Ⅲ群,225,141001
ID-702,九州,鹿児島,46201,米盛病院,890-0062,鹿児島県鹿児島市与次郎1丁目7番1号,米盛　公治,http://www.yonemorihp.jp/guide/staff/,94,85,Ⅲ群,226,141017
ID-694,九州,大分,44203,川嶌整形外科病院,871-0012,大分県中津市宮夫17,川嶌 眞之,http://kawashimahp.jp/clinic/ishi.html,93,63,Ⅲ群,226,141017
ID-1547,九州,宮崎,45202,橘病院,885-0071,宮崎県都城市中町15街区24,柏木　輝行,,92,30,Ⅲ群,226,141017
ID-1532,九州,福岡,40203,医療法人　松風海　内藤病院,830-0038,福岡県久留米市西町1169-1,0,,90,60,Ⅲ群,226,141017
ID-1533,九州,福岡,40228,朝倉医師会病院,838-0069,福岡県朝倉市来春422-1,上野　隆登,http://www.asakura-med.or.jp/hospital/hospital_greeting.html,300,254,Ⅲ群,221,140924
ID-360,九州,沖縄,47328,社会医療法人　かりゆし会　ハートライフ病院,901-2492,沖縄県中頭郡中城村字伊集208,奥島　憲彦,http://www.heartlife.or.jp/hospital/summary/compliments2/,300,300,Ⅲ群,221,140924
ID-2167,九州,大分,44201,独立行政法人国立病院機構　大分医療センター,870-0263,大分県大分市横田2丁目11?45,室　豊吉,http://nho-oita.jp/01_byoin_syokai/01_01.html,300,300,Ⅲ群,221,140924
ID-2052,九州,福岡,40230,糸島医師会病院,819-1112,福岡県糸島市浦志532?1,冨田　昌良,http://itomedhp.jp/aisatsu/aisatsu.html,150,116,Ⅲ群,221,140924
ID-666,九州,福岡,40216,医療法人社団シマダ嶋田病院,838-0141,福岡県小郡市小郡217-1,島田　昇ニ郎,http://shimadahp.jp/greeting.html,150,100,Ⅲ群,221,140924
ID-1537,九州,佐賀,41205,山元記念病院,848-0031,佐賀県伊万里市二里町八谷搦88-4,山元　博,http://www.kenjin-kai.com/message/,150,51,Ⅲ群,221,140924
ID-678,九州,佐賀,41425,白石共立病院,849-1112,佐賀県杵島郡白石町大字福田1296,眞島　東一郎,http://www.shiroishikyouritsu.jp/publics/index/2/,150,98,Ⅲ群,221,140924
ID-1367,九州,長崎,42201,医療法人厚生会　虹が丘病院,852-8055,長崎県長崎市虹が丘町1-1,冨永　雅博,http://www.nijigaoka.org/salutation.html,150,142,Ⅲ群,221,140924
ID-717,九州,沖縄,47209,沖縄県立北部病院,905-8512,沖縄県名護市大中2-12-3,上原　哲夫,http://www.hosp.pref.okinawa.jp/hokubu/byo_aisatsu.html,293,293,Ⅲ群,221,140724
ID-1535,九州,福岡,40101,ＪＲ九州病院,800-0031,福岡県北九州市門司区高田2-1-1,林田　一洋,http://www.jrkyushu-hospital.jp/hospital_info/summary.html,265,152,Ⅲ群,221,140724
ID-662,九州,福岡,40217,福岡県済生会二日市病院,818-8516,福岡県筑紫野市湯町3-13-1,間野 正衛,http://www.saiseikai-futsukaichi.org/about/message.html,260,260,Ⅲ群,221,140724
ID-352,九州,大分,44205,独立行政法人地域医療機能推進機構　南海医療センター,876-0857,大分県佐伯市常盤西町11-20,亀川　隆久,http://nankai.jcho.go.jp/%e9%99%a2%e9%95%b7%e6%8c%a8%e6%8b%b6/,260,260,Ⅲ群,221,140724
ID-1325,九州,福岡,40131,医療法人　輝栄会　福岡輝栄会病院,813-0044,福岡県福岡市東区千早5-11-5,中村 吉孝,http://www.kieikai.ne.jp/outpatient/doctor.html,259,168,Ⅲ群,221,140724
ID-670,九州,福岡,40206,社会保険田川病院,826-8585,福岡県田川市上本町10-18,田中　裕穂,http://www.s-tagawa-hp.tagawa.fukuoka.jp/introduction/aisatsu.html,258,258,Ⅲ群,221,140724
ID-680,九州,長崎,42201,社会医療法人　長崎記念病院,851-0301,長崎県長崎市深堀町1-11-54,今村　由紀夫,http://www.nmhp.or.jp/byouinsyoukai.html,256,164,Ⅲ群,221,140724
ID-1381,九州,熊本,43204,荒尾市民病院,864-0041,熊本県荒尾市荒尾2600,大嶋 壽海,http://www.hospital.arao.kumamoto.jp/summary/,256,228,Ⅲ群,221,140724
ID-1409,九州,鹿児島,46201,鹿児島市医師会病院,890-0064,鹿児島県鹿児島市鴨池新町7-1,園田　健,http://www.city.kagoshima.med.or.jp/kasiihp/aisatsu.html,255,255,Ⅲ群,221,140724
ID-1553,九州,鹿児島,46222,医療法人　徳洲会　名瀬徳洲会病院,894-0061,鹿児島県奄美市名瀬朝日町28-1,松浦 甲彰,http://www.nazetokushukai.jp/guide/i_aisatu.html,255,155,Ⅲ群,221,140724
ID-2159,九州,福岡,40206,田川市立病院,825-8567,福岡県田川市大字糒1700番地2,鴻江　俊治,http://hospital.city.tagawa.fukuoka.jp/one_html3/pub/default.aspx?c_id=4,252,252,Ⅲ群,221,140724
ID-1351,九州,福岡,40101,独立行政法人労働者健康福祉機構　九州労災病院　門司メディカルセンター,801-8502,福岡県北九州市門司区東港町3-1,蜂須賀　研二 ,http://www.mojih.rofuku.go.jp/hosp/index.html,250,236,Ⅲ群,223,140726
ID-1415,九州,鹿児島,46215,社会福祉法人　恩賜財団　済生会川内病院,895-0074,鹿児島県薩摩川内市原田町2-46,青﨑　眞一郎,http://www14.synapse.ne.jp/saiseikaisen/gaiyou/index.htm,244,244,Ⅲ群,223,140726
ID-681,九州,長崎,42213,医療法人伴帥会　愛野記念病院,854-0301,長崎県雲仙市愛野町甲3838-1,古賀　宏延,http://www.ainomhp.jp/about.html,234,194,Ⅲ群,223,140726
ID-142,九州,熊本,43203,独立行政法人地域医療機能推進機構　人吉医療センター,868-8555,熊本県人吉市老神町35,木村　正美,http://hitoyoshi.jcho.go.jp/%E7%97%85%E9%99%A2%E9%95%B7%E6%8C%A8%E6%8B%B6/,234,203,Ⅲ群,223,140726
ID-695,九州,大分,44203,中津市立中津市民病院,871-8511,大分県中津市大字下池永173,横田 昌樹,http://www.city-nakatsu.jp/hospital/hospital/greeting/index.html,250,250,Ⅲ群,223,140718
ID-1416,九州,鹿児島,46218,霧島市立医師会医療センター,899-5112,鹿児島県霧島市隼人町松永3320,風呂井　彰,http://www.hayato-mc.jp/kmcinfo/gaiyou.html,250,239,Ⅲ群,223,140718
ID-657,九州,福岡,40135,西福岡病院,819-8555,福岡県福岡市西区生の松原3-18-8,中垣　充,http://www.nishifukuhp.or.jp/hospital/about.html,248,76,Ⅲ群,223,140718
ID-1395,九州,宮崎,45201,宮崎市郡医師会病院,880-0834,宮崎県宮崎市新別府町船戸738-1,川名　隆司,http://www.cure.or.jp/html/greeting.html,248,236,Ⅲ群,223,140718
ID-333,九州,福岡,40213,新行橋病院,824-0026,福岡県行橋市道場寺1411,正久　康彦,http://www.shinyukuhashihospital.or.jp/data/contents/1_shoukai/guide.html,246,207,Ⅲ群,223,140718
ID-685,九州,長崎,42203,長崎県島原病院,855-0861,長崎県島原市下川尻町7895,松尾　繁年,http://www.shimabarabyoin.jp/intyouaisatsu/intyouaisatsu.html,245,224,Ⅲ群,223,140718
ID-350,九州,大分,44201,大分岡病院,870-0192,大分県大分市西鶴崎3-7-11,森 照明,http://www.oka-hp.com/outline/greeting/,231,217,Ⅲ群,223,140911
ID-1388,九州,大分,44202,大分県厚生連鶴見病院,874-8585,大分県別府市大字鶴見4333,藤富 豊,http://www.ok-tsurumi.com/outline/info/index.html,230,223,Ⅲ群,223,140911
ID-674,九州,福岡,40101,新小文字病院,800-0057,福岡県北九州市門司区大里新町2-5,甲斐 秀信,http://www.shinkomonji-hp.jp/aisatsu1/,229,229,Ⅲ群,223,140911
ID-1335,九州,福岡,40135,福岡リハビリテーション病院,819-8551,福岡県福岡市西区野方7-770,木原 亨,http://www.frh.or.jp/gaiyou/aisatu.html,228,118,Ⅲ群,223,140911
ID-1350,九州,福岡,40101,一般社団法人日本海員掖済会門司掖済会病院,801-8550,福岡県北九州市門司区清滝1-3-1,阿部 功,http://www.ekisaikai-moji.jp/info.html,225,225,Ⅲ群,223,140911
ID-690,九州,熊本,43404,社会医療法人社団熊本丸田会　熊本リハビリテーション病院,869-1106,熊本県菊池郡菊陽町曲手760,古閑 博明,http://www.marutakai.or.jp/kumareha/view_detail/topic_detail/ctag:hospital,225,95,Ⅲ群,223,140911
ID-357,九州,鹿児島,46215,川内市医師会立市民病院,895-0005,鹿児島県薩摩川内市永利町4107-7,石部 良平,http://sendaihp.jp/gaiyo01.html,224,160,Ⅲ群,223,140911
ID-326,九州,福岡,40137,福岡記念病院,814-8525,福岡県福岡市早良区西新1-1-35,黒田 康夫,http://www.kinen.jp/contents/information/greeting02.html,220,220,Ⅲ群,223,140919
ID-1364,九州,長崎,42201,聖フランシスコ病院,852-8125,長崎県長崎市小峰町9-20,大曲 武征,http://www.sfh.or.jp/s-greeting.html,220,154,Ⅲ群,223,140919
ID-1375,九州,熊本,43100,熊本市医師会熊本地域医療センター,860-0811,熊本県熊本市本荘5-16-10,廣田 昌彦,http://krmc.or.jp/?page=center_doctors,220,206,Ⅲ群,223,140919
ID-669,九州,福岡,40202,医療法人　親仁会　米の山病院,837-8501,福岡県大牟田市大字今山2324-1,後藤 良三,http://www.kome-net.or.jp/about/policy.html,219,119,Ⅲ群,223,140919
ID-1407,九州,鹿児島,46201,中央病院,892-0822,鹿児島県鹿児島市泉町6-7,厚地 良彦,,219,183,Ⅲ群,223,140919
ID-672,九州,福岡,40105,戸畑共立病院,804-0073,福岡県北九州市戸畑区沢見2-5-1,下河邉 正行,http://kyoaikai.com/kyoritsu/aisatsu.html,218,218,Ⅲ群,223,140919
ID-1371,九州,長崎,42308,医療法人光善会　長崎百合野病院,851-2103,長崎県西彼杵郡時津町元村郷1155-2,瀬良　敬祐,http://www.yurinohp.jp/about/facilities.html,160,104,Ⅲ群,222,140725
ID-1539,九州,長崎,42201,長崎掖済会病院,850-0034,長崎県長崎市樺島町5-16,松尾 罣,http://ekisaikai-nagasaki.jp/index.php?id=2,158,143,Ⅲ群,222,140803
ID-355,九州,鹿児島,46201,今村病院,892-0824,鹿児島県鹿児島市堀江町17-1,鎌田　哲郎,http://www.jiaikai.or.jp/imamura/aboutus/message.html,158,158,Ⅲ群,222,140811
ID-677,九州,佐賀,41203,やよいがおか鹿毛病院,841-0005,佐賀県鳥栖市弥生が丘2-143,栁澤　次郎雄,http://kagehospital.or.jp/patient/treat07.html,152,94,Ⅲ群,222,140831
ID-1347,九州,福岡,40204,社会保険直方病院,822-0024,福岡県直方市須崎町1番1号,坂本 茂,http://nogata-hp.jp/about,156,120,Ⅲ群,222,140815
ID-1630,九州,佐賀,41201,独立行政法人国立病院機構　佐賀病院,849-8577,佐賀県佐賀市日の出1-20-1,島　正義,http://www.saga-hosp.jp/hospital/aisatsu.html,292,292,Ⅲ群,221,140717
ID-354,九州,鹿児島,46201,今村病院分院,892-0824,鹿児島県鹿児島市鴨池新町11-23,宇都宮  與,http://www.jiaikai.or.jp/imamura-bunin/aboutus/message.html,287,204,Ⅲ群,221,140717
ID-683,九州,長崎,42322,独立行政法人国立病院機構　長崎川棚医療センター,859-3615,長崎県東彼杵郡川棚町下組郷2005-1,宮下 光世,http://www.nkmc.jp/greetings.html,285,204,Ⅲ群,221,140717
ID-1338,九州,福岡,40133,博愛会病院,810-0034,福岡県福岡市中央区笹丘1-28-25,林 隆一,,281,131,Ⅲ群,221,140717
ID-1404,九州,宮崎,45204,県立日南病院,887-0013,宮崎県日南市木山1-9-5,鬼塚　敏男,http://nichinan-kenbyo.jp/outline/director.html,281,265,Ⅲ群,221,140717
ID-713,九州,沖縄,47212,沖縄協同病院,901-0293,沖縄県那覇市古波蔵4-10-55,仲程　正哲,http://www.oki-kyo.jp/about/,280,280,Ⅲ群,221,140717
ID-351,九州,大分,44202,国家公務員共済組合連合会新別府病院,874-0833,大分県別府市大字鶴見3898,中村　夏樹,http://shinbeppu-hosp.jp/about/greeting.html,269,269,Ⅲ群,221,140717
ID-673,九州,福岡,40621,社会医療法人　陽明会小波瀬病院,800-0344,福岡県京都郡苅田町大字新津1598,山家　仁,http://www.youmeikai.jp/obase/message/,266,166,Ⅲ群,221,140717
ID-1421,九州,沖縄,47214,沖縄県立宮古病院,906-0013,沖縄県宮古島市 平良字下里427-1,安谷屋　正明,http://www.hosp.pref.okinawa.jp/miyako/home/aisatsu.html,393,286,Ⅲ群,221,140804
ID-700,九州,宮崎,45203,県立延岡病院,882-0835,宮崎県延岡市新小路2-1-10,柳邊　安秀,http://nobeoka-kenbyo.jp/outline/,386,386,Ⅲ群,221,140804
ID-708,九州,鹿児島,46201,独立行政法人　国立病院機構　鹿児島医療センター,892-0853,鹿児島県鹿児島市城山町8-1,花田 修一,,366,366,Ⅲ群,221,140804
ID-699,九州,宮崎,45201,古賀総合病院,880-0041,宮崎県宮崎市池内町数太木1749-1,今村　卓郎,http://www.kgh.or.jp/introduction/greeting.html,363,271,Ⅲ群,221,140804
ID-676,九州,福岡,40107,北九州総合病院,800-0295,福岡県北九州市小倉南区湯川5-10-10,永田　直幹,http://www.kitakyu-hp.or.jp/contents/sogo/aboutus/message.html,360,360,Ⅲ群,221,140804
ID-342,九州,長崎,42201,日本赤十字社　長崎原爆病院,852-8511,長崎県長崎市茂里町3-15,平野　明喜,http://www.nagasaki-med.jrc.or.jp/outline/guide/,360,360,Ⅲ群,221,140804
ID-348,九州,熊本,43205,国保　水俣市立総合医療センター,867-0041,熊本県水俣市天神町1-2-1,坂本　不出夫,http://minamata-hp.jp/outline/,360,315,Ⅲ群,221,140804
ID-322,九州,福岡,40132,医療法人　原三信病院,812-0033,福岡県福岡市博多区大博町1-8,平　祐二,http://www.harasanshin.or.jp/outline/index,359,359,Ⅲ群,221,140804
ID-359,九州,沖縄,47212,社会医療法人友愛会豊見城中央病院,901-0243,沖縄県豊見城市字上田25,潮平 芳樹,http://tomishiro-chp.jp/about/greething/,356,356,Ⅲ群,221,140804
ID-347,九州,熊本,43100,国家公務員共済組合連合会　熊本中央病院,862-0965,熊本県熊本市田井島1-5-1,濱田　泰之,http://www.kumachu.gr.jp/about/greeting/,355,355,Ⅲ群,221,140811
ID-684,九州,長崎,42202,国家公務員共済組合連合会　佐世保共済病院,857-8575,長崎県佐世保市島地町10-17,木寺 義郎,http://kkr.sasebo.nagasaki.jp/hospital/message/,352,295,Ⅲ群,221,140811
ID-1346,九州,福岡,40202,社会保険大牟田天領病院,836-8566,福岡県大牟田市天領町1-100,杉本　峯晴,http://omutatenryo-hp.jp/about/about.html,351,281,Ⅲ群,221,140811
ID-668,九州,福岡,40202,大牟田市立病院,836-0861,福岡県大牟田市宝坂町2-19-1,野口 和典,http://www.ghp.omuta.fukuoka.jp/hospital/hospital_02.html,350,342,Ⅲ群,221,140811
ID-339,九州,長崎,42202,長崎労災病院,857-0134,長崎県佐世保市瀬戸越2-12-5,福崎　誠,http://www.na-robyo.jp/information/inchyou_aisatsu/aisatsu.html,350,316,Ⅲ群,221,140827
ID-1554,九州,鹿児島,46222,鹿児島県立大島病院,894-0015,鹿児島県奄美市名瀬真名津町18-1,眞田　純一,http://hospital.pref.kagoshima.jp/oshima/information/greeting.html,350,321,Ⅲ群,221,140827
ID-1422,九州,沖縄,47207,沖縄県立八重山病院,907-0022,沖縄県石垣市字大川732,依光 たみ枝,http://www.hosp.pref.okinawa.jp/yaeyama/information/greeting.html,350,300,Ⅲ群,221,140827
ID-667,九州,福岡,40203,医療法人聖峰会　田主丸中央病院,839-1213,福岡県久留米市田主丸町益生田892,鬼塚　一郎,http://www.seihoukai.or.jp/about/message/,347,115,Ⅲ群,221,140827
ID-663,九州,福岡,40217,福岡大学筑紫病院,818-8502,福岡県筑紫野市俗明院1-1-1,向野　利寛,http://www.fukuoka-u.ac.jp/chikushi/about/message.html,345,345,Ⅲ群,221,140827
ID-714,九州,沖縄,47362,医療法人　沖縄徳洲会南部徳洲会病院,901-0493,沖縄県島尻郡八重瀬町字外間171-1,赤崎　満,http://www.nantoku.org/medical/outline/greeting/index.html,345,304,Ⅲ群,221,140827
ID-696,九州,大分,44201,大分赤十字病院,870-0033,大分県大分市千代町3-2-37,若杉 健三,,340,340,Ⅲ群,221,140827
ID-655,九州,福岡,40132,千鳥橋病院,812-0044,福岡県福岡市博多区千代5-18-1,豊田 文俊,http://www.chidoribashi-hp.or.jp/menu5/goaisatu/index.html,336,238,Ⅲ群,221,140827
ID-141,九州,熊本,43202,独立行政法人地域医療機能推進機構　熊本総合病院,866-8660,熊本県八代市通町１０番１０号,島田　信也,http://newera.kumamoto-gh.jp/outline/,334,322,Ⅲ群,221,140827
ID-327,九州,福岡,40134,公立学校共済組合　九州中央病院,815-8588,福岡県福岡市南区塩原3-23-1,飯田　三雄,http://kyushu-ctr-hsp.com/about/message/,330,330,Ⅲ群,221,140905
ID-1401,九州,宮崎,45202,藤元総合病院,885-0055,宮崎県都城市早鈴町17-1,中村 克巳,,330,280,Ⅲ群,221,140905
ID-144,九州,沖縄,47211,社会医療法人　敬愛会中頭病院,904-2195,沖縄県沖縄市字知花6-25-5,宮里　善次,http://www.nakagami.or.jp/nakagami/touin/aisatu.html,326,326,Ⅲ群,221,140905
ID-140,九州,長崎,42204,独立行政法人地域医療機能推進機構　諫早総合病院,854-8501,長崎県諫早市永昌東町24-1,君野　孝二,http://isahaya.jcho.go.jp/%E7%97%85%E9%99%A2%E9%95%B7%E6%8C%A8%E6%8B%B6/,323,315,Ⅲ群,221,140905
ID-711,九州,沖縄,47211,中部徳洲会病院,904-8585,沖縄県沖縄市照屋3-20-1,伊波　潔,http://www.cyutoku.or.jp/info/aisatsu.html,319,319,Ⅲ群,221,140905
ID-654,九州,福岡,40131,福岡和白病院,811-0213,福岡県福岡市東区和白丘2-2-75,伊藤 翼,http://www.f-wajirohp.jp/syoukai/iinchouaisatsu.php,317,317,Ⅲ群,221,140905
ID-716,九州,沖縄,47201,沖縄赤十字病院,902-8588,沖縄県那覇市与儀1-3-1,髙良 英一,http://www.okinawa-rch.jp/about/message.html,314,314,Ⅲ群,221,140905
ID-1412,九州,鹿児島,46203,大隅鹿屋病院,893-0015,鹿児島県鹿屋市新川町6081-1,井戸 弘毅,http://www.kanoya-aishinkai.com/AboutUs/b/b1.html,313,204,Ⅲ群,221,140905
ID-1354,九州,福岡,40106,国家公務員共済組合連合会新小倉病院,803-8505,福岡県北九州市小倉北区金田1-3-1,渋谷　恒文,http://shin-kokura.gr.jp/introduction/greeting.html,310,243,Ⅲ群,221,140905
ID-337,九州,長崎,42202,社会医療法人財団　白十字会　佐世保中央病院,857-1195,長崎県佐世保市大和町15,碇  秀樹,http://www.hakujyujikai.or.jp/chuo/about/outline.html,310,300,Ⅲ群,221,140912
ID-1410,九州,鹿児島,46201,医療法人　徳洲会　鹿児島徳洲会病院,890-0056,鹿児島県鹿児島市下荒田3-8-1,飯田  信也,http://www.kagotoku.jp/about_01.html,310,130,Ⅲ群,221,140912
ID-1379,九州,熊本,43403,熊本セントラル病院,869-1235,熊本県菊池郡大津町室955,南野  隆一,http://www.kchosp.or.jp/about,308,174,Ⅲ群,221,140912
ID-1631,九州,宮崎,45202,独立行政法人　国立病院機構　都城病院,885-0014,宮崎県都城市祝吉町5033-1,井口  厚司,http://www.nho-miyakon.jp/aboutus/aboutus/kiji000029.php,307,307,Ⅲ群,221,140912
ID-1406,九州,鹿児島,46201,総合病院　鹿児島生協病院,891-0141,鹿児島県鹿児島市谷山中央5-20-10,長谷  康二,http://www.kaseikyohp.jp/intro/greeting.html,306,226,Ⅲ群,221,140912
ID-692,九州,熊本,43206,公立玉名中央病院,865-0064,熊本県玉名市中1950,中野  哲雄,http://www.tamana-chp.jp/01byouin/aisatsu.html,302,232,Ⅲ群,221,140912
ID-1362,九州,佐賀,41202,唐津赤十字病院,847-8588,佐賀県唐津市二夕子1-5-1,志田原  哲,http://www.karatsu.jrc.or.jp/byoin/incho.html,301,301,Ⅲ群,221,140912
ID-1331,九州,福岡,40224,宗像水光会総合病院,811-3298,福岡県福津市日蒔野5丁目7番地の1,津留  英智,http://www.suikokai.or.jp/about/message.html,300,227,Ⅲ群,221,140912
ID-328,九州,福岡,40210,公立八女総合病院,834-0034,福岡県八女市高塚540-2,小野  典之（企業長）,http://www.hosp-yame.jp/hospital/guide/summary.html,300,300,Ⅲ群,221,140912
,,,,,,,,,,,,,
,,,,,,,,,,,,,
,,,,,,,,,,,,,
,,,,,,,,,,,,,
,,,,,,,,,,,,,
,,,,,,,,,,,,,
,,,,,,,,,,,,,
,,,,,,,,,,,,,
,,,,,,,,,,,,,
,,,,,,,,,,,,,
,,,,,,,,,,,,,
,,,,,,,,,,,,,
,,,,,,,,,,,,,
,,,,,,,,,,,,,
,,,,,,,,,,,,,
,,,,,,,,,,,,,
,,,,,,,,,,,,,
,,,,,,,,,,,,,
,,,,,,,,,,,,,
,,,,,,,,,,,,,
,,,,,,,,,,,,,
,,,,,,,,,,,,,
,,,,,,,,,,,,,
,,,,,,,,,,,,,
,,,,,,,,,,,,,
,,,,,,,,,,,,,
,,,,,,,,,,,,,
,,,,,,,,,,,,,
,,,,,,,,,,,,,
,,,,,,,,,,,,,
,,,,,,,,,,,,,
,,,,,,,,,,,,,
,,,,,,,,,,,,,
,,,,,,,,,,,,,
,,,,,,,,,,,,,
,,,,,,,,,,,,,
,,,,,,,,,,,,,
,,,,,,,,,,,,,
,,,,,,,,,,,,,
,,,,,,,,,,,,,
,,,,,,,,,,,,,
,,,,,,,,,,,,,
,,,,,,,,,,,,,
,,,,,,,,,,,,,
,,,,,,,,,,,,,
,,,,,,,,,,,,,
,,,,,,,,,,,,,
,,,,,,,,,,,,,
,,,,,,,,,,,,,
,,,,,,,,,,,,,
,,,,,,,,,,,,,
,,,,,,,,,,,,,
,,,,,,,,,,,,,
,,,,,,,,,,,,,
,,,,,,,,,,,,,
,,,,,,,,,,,,,
,,,,,,,,,,,,,
,,,,,,,,,,,,,
,,,,,,,,,,,,,
,,,,,,,,,,,,,
,,,,,,,,,,,,,
,,,,,,,,,,,,,
,,,,,,,,,,,,,
,,,,,,,,,,,,,
,,,,,,,,,,,,,
,,,,,,,,,,,,,
,,,,,,,,,,,,,
,,,,,,,,,,,,,
,,,,,,,,,,,,,
,,,,,,,,,,,,,
,,,,,,,,,,,,,
,,,,,,,,,,,,,
,,,,,,,,,,,,,
,,,,,,,,,,,,,
,,,,,,,,,,,,,
,,,,,,,,,,,,,
,,,,,,,,,,,,,
,,,,,,,,,,,,,
,,,,,,,,,,,,,
,,,,,,,,,,,,,
,,,,,,,,,,,,,
,,,,,,,,,,,,,
,,,,,,,,,,,,,
,,,,,,,,,,,,,
,,,,,,,,,,,,,
,,,,,,,,,,,,,
,,,,,,,,,,,,,
,,,,,,,,,,,,,
,,,,,,,,,,,,,
,,,,,,,,,,,,,
,,,,,,,,,,,,,
,,,,,,,,,,,,,
,,,,,,,,,,,,,
,,,,,,,,,,,,,
,,,,,,,,,,,,,
,,,,,,,,,,,,,
,,,,,,,,,,,,,
,,,,,,,,,,,,,
,,,,,,,,,,,,,
,,,,,,,,,,,,,
,,,,,,,,,,,,,
,,,,,,,,,,,,,
,,,,,,,,,,,,,
,,,,,,,,,,,,,
,,,,,,,,,,,,,
,,,,,,,,,,,,,
,,,,,,,,,,,,,
,,,,,,,,,,,,,
,,,,,,,,,,,,,
,,,,,,,,,,,,,
,,,,,,,,,,,,,
,,,,,,,,,,,,,
,,,,,,,,,,,,,
,,,,,,,,,,,,,
,,,,,,,,,,,,,
,,,,,,,,,,,,,
,,,,,,,,,,,,,
,,,,,,,,,,,,,
,,,,,,,,,,,,,
,,,,,,,,,,,,,
,,,,,,,,,,,,,
,,,,,,,,,,,,,
,,,,,,,,,,,,,
,,,,,,,,,,,,,
,,,,,,,,,,,,,
,,,,,,,,,,,,,
,,,,,,,,,,,,,
,,,,,,,,,,,,,
,,,,,,,,,,,,,
,,,,,,,,,,,,,
,,,,,,,,,,,,,
,,,,,,,,,,,,,
,,,,,,,,,,,,,
,,,,,,,,,,,,,
,,,,,,,,,,,,,
,,,,,,,,,,,,,
,,,,,,,,,,,,,
,,,,,,,,,,,,,
,,,,,,,,,,,,,
,,,,,,,,,,,,,
,,,,,,,,,,,,,
,,,,,,,,,,,,,
,,,,,,,,,,,,,
,,,,,,,,,,,,,
,,,,,,,,,,,,,
,,,,,,,,,,,,,
,,,,,,,,,,,,,
,,,,,,,,,,,,,
,,,,,,,,,,,,,
,,,,,,,,,,,,,
,,,,,,,,,,,,,
,,,,,,,,,,,,,
,,,,,,,,,,,,,
,,,,,,,,,,,,,
,,,,,,,,,,,,,
,,,,,,,,,,,,,
,,,,,,,,,,,,,
,,,,,,,,,,,,,
,,,,,,,,,,,,,
,,,,,,,,,,,,,
,,,,,,,,,,,,,
,,,,,,,,,,,,,
,,,,,,,,,,,,,
,,,,,,,,,,,,,
,,,,,,,,,,,,,
,,,,,,,,,,,,,
,,,,,,,,,,,,,
,,,,,,,,,,,,,
,,,,,,,,,,,,,
,,,,,,,,,,,,,
,,,,,,,,,,,,,
,,,,,,,,,,,,,
,,,,,,,,,,,,,
,,,,,,,,,,,,,
,,,,,,,,,,,,,
,,,,,,,,,,,,,
,,,,,,,,,,,,,
,,,,,,,,,,,,,
,,,,,,,,,,,,,
,,,,,,,,,,,,,
,,,,,,,,,,,,,
,,,,,,,,,,,,,
,,,,,,,,,,,,,
,,,,,,,,,,,,,
,,,,,,,,,,,,,
,,,,,,,,,,,,,
,,,,,,,,,,,,,
,,,,,,,,,,,,,
,,,,,,,,,,,,,
,,,,,,,,,,,,,
,,,,,,,,,,,,,
,,,,,,,,,,,,,
,,,,,,,,,,,,,
,,,,,,,,,,,,,
,,,,,,,,,,,,,
,,,,,,,,,,,,,
,,,,,,,,,,,,,
,,,,,,,,,,,,,
,,,,,,,,,,,,,
,,,,,,,,,,,,,
,,,,,,,,,,,,,
,,,,,,,,,,,,,
,,,,,,,,,,,,,
,,,,,,,,,,,,,
,,,,,,,,,,,,,
,,,,,,,,,,,,,
,,,,,,,,,,,,,
,,,,,,,,,,,,,
,,,,,,,,,,,,,
,,,,,,,,,,,,,
,,,,,,,,,,,,,
,,,,,,,,,,,,,
,,,,,,,,,,,,,
,,,,,,,,,,,,,
,,,,,,,,,,,,,
,,,,,,,,,,,,,
,,,,,,,,,,,,,
,,,,,,,,,,,,,
,,,,,,,,,,,,,
,,,,,,,,,,,,,
,,,,,,,,,,,,,
,,,,,,,,,,,,,
,,,,,,,,,,,,,
,,,,,,,,,,,,,
,,,,,,,,,,,,,
,,,,,,,,,,,,,
,,,,,,,,,,,,,
,,,,,,,,,,,,,
,,,,,,,,,,,,,
,,,,,,,,,,,,,
,,,,,,,,,,,,,
,,,,,,,,,,,,,
,,,,,,,,,,,,,
,,,,,,,,,,,,,
,,,,,,,,,,,,,
,,,,,,,,,,,,,
,,,,,,,,,,,,,
,,,,,,,,,,,,,
,,,,,,,,,,,,,
,,,,,,,,,,,,,
,,,,,,,,,,,,,
,,,,,,,,,,,,,
,,,,,,,,,,,,,
,,,,,,,,,,,,,
,,,,,,,,,,,,,
,,,,,,,,,,,,,
,,,,,,,,,,,,,
,,,,,,,,,,,,,
,,,,,,,,,,,,,
,,,,,,,,,,,,,
,,,,,,,,,,,,,
,,,,,,,,,,,,,
,,,,,,,,,,,,,
,,,,,,,,,,,,,
,,,,,,,,,,,,,
,,,,,,,,,,,,,
,,,,,,,,,,,,,
,,,,,,,,,,,,,
,,,,,,,,,,,,,
,,,,,,,,,,,,,
,,,,,,,,,,,,,
,,,,,,,,,,,,,
,,,,,,,,,,,,,
,,,,,,,,,,,,,
,,,,,,,,,,,,,
,,,,,,,,,,,,,
,,,,,,,,,,,,,
,,,,,,,,,,,,,
,,,,,,,,,,,,,
,,,,,,,,,,,,,
,,,,,,,,,,,,,
,,,,,,,,,,,,,
,,,,,,,,,,,,,
,,,,,,,,,,,,,
,,,,,,,,,,,,,
,,,,,,,,,,,,,
,,,,,,,,,,,,,
,,,,,,,,,,,,,
,,,,,,,,,,,,,
,,,,,,,,,,,,,
,,,,,,,,,,,,,
,,,,,,,,,,,,,
,,,,,,,,,,,,,
,,,,,,,,,,,,,
,,,,,,,,,,,,,
,,,,,,,,,,,,,
,,,,,,,,,,,,,
,,,,,,,,,,,,,
,,,,,,,,,,,,,
,,,,,,,,,,,,,
,,,,,,,,,,,,,
,,,,,,,,,,,,,
,,,,,,,,,,,,,
,,,,,,,,,,,,,
,,,,,,,,,,,,,
,,,,,,,,,,,,,
,,,,,,,,,,,,,
,,,,,,,,,,,,,
,,,,,,,,,,,,,
,,,,,,,,,,,,,
,,,,,,,,,,,,,
,,,,,,,,,,,,,
,,,,,,,,,,,,,
,,,,,,,,,,,,,
,,,,,,,,,,,,,
,,,,,,,,,,,,,
,,,,,,,,,,,,,
,,,,,,,,,,,,,
,,,,,,,,,,,,,
,,,,,,,,,,,,,
,,,,,,,,,,,,,
,,,,,,,,,,,,,
,,,,,,,,,,,,,
,,,,,,,,,,,,,
,,,,,,,,,,,,,
,,,,,,,,,,,,,
,,,,,,,,,,,,,
,,,,,,,,,,,,,
,,,,,,,,,,,,,
,,,,,,,,,,,,,
,,,,,,,,,,,,,
,,,,,,,,,,,,,
,,,,,,,,,,,,,
,,,,,,,,,,,,,
,,,,,,,,,,,,,
,,,,,,,,,,,,,
,,,,,,,,,,,,,
,,,,,,,,,,,,,
,,,,,,,,,,,,,
,,,,,,,,,,,,,
,,,,,,,,,,,,,
,,,,,,,,,,,,,
,,,,,,,,,,,,,
,,,,,,,,,,,,,
,,,,,,,,,,,,,
,,,,,,,,,,,,,
,,,,,,,,,,,,,
,,,,,,,,,,,,,
,,,,,,,,,,,,,
,,,,,,,,,,,,,
,,,,,,,,,,,,,
,,,,,,,,,,,,,
,,,,,,,,,,,,,
,,,,,,,,,,,,,
,,,,,,,,,,,,,
,,,,,,,,,,,,,
,,,,,,,,,,,,,
,,,,,,,,,,,,,
,,,,,,,,,,,,,
,,,,,,,,,,,,,
,,,,,,,,,,,,,
,,,,,,,,,,,,,
,,,,,,,,,,,,,
,,,,,,,,,,,,,
,,,,,,,,,,,,,
,,,,,,,,,,,,,
,,,,,,,,,,,,,
,,,,,,,,,,,,,
,,,,,,,,,,,,,
,,,,,,,,,,,,,
,,,,,,,,,,,,,
,,,,,,,,,,,,,
,,,,,,,,,,,,,
,,,,,,,,,,,,,
,,,,,,,,,,,,,
,,,,,,,,,,,,,
,,,,,,,,,,,,,
,,,,,,,,,,,,,
,,,,,,,,,,,,,
,,,,,,,,,,,,,
,,,,,,,,,,,,,
,,,,,,,,,,,,,
,,,,,,,,,,,,,
,,,,,,,,,,,,,
,,,,,,,,,,,,,
,,,,,,,,,,,,,
,,,,,,,,,,,,,
,,,,,,,,,,,,,
,,,,,,,,,,,,,
,,,,,,,,,,,,,
,,,,,,,,,,,,,
,,,,,,,,,,,,,
,,,,,,,,,,,,,
,,,,,,,,,,,,,
,,,,,,,,,,,,,
,,,,,,,,,,,,,
,,,,,,,,,,,,,
,,,,,,,,,,,,,
,,,,,,,,,,,,,
,,,,,,,,,,,,,
,,,,,,,,,,,,,
,,,,,,,,,,,,,
,,,,,,,,,,,,,
,,,,,,,,,,,,,
,,,,,,,,,,,,,
,,,,,,,,,,,,,
,,,,,,,,,,,,,
,,,,,,,,,,,,,
,,,,,,,,,,,,,
,,,,,,,,,,,,,
,,,,,,,,,,,,,
,,,,,,,,,,,,,
,,,,,,,,,,,,,
,,,,,,,,,,,,,
,,,,,,,,,,,,,
,,,,,,,,,,,,,
,,,,,,,,,,,,,
,,,,,,,,,,,,,
,,,,,,,,,,,,,
,,,,,,,,,,,,,
,,,,,,,,,,,,,
,,,,,,,,,,,,,
,,,,,,,,,,,,,
,,,,,,,,,,,,,
,,,,,,,,,,,,,
,,,,,,,,,,,,,
,,,,,,,,,,,,,
,,,,,,,,,,,,,
,,,,,,,,,,,,,
,,,,,,,,,,,,,
,,,,,,,,,,,,,
,,,,,,,,,,,,,
,,,,,,,,,,,,,
,,,,,,,,,,,,,
,,,,,,,,,,,,,
,,,,,,,,,,,,,
,,,,,,,,,,,,,
,,,,,,,,,,,,,
,,,,,,,,,,,,,
,,,,,,,,,,,,,
,,,,,,,,,,,,,
,,,,,,,,,,,,,
,,,,,,,,,,,,,
,,,,,,,,,,,,,
,,,,,,,,,,,,,
,,,,,,,,,,,,,
,,,,,,,,,,,,,
,,,,,,,,,,,,,
,,,,,,,,,,,,,
,,,,,,,,,,,,,
,,,,,,,,,,,,,
,,,,,,,,,,,,,
,,,,,,,,,,,,,
,,,,,,,,,,,,,
,,,,,,,,,,,,,
,,,,,,,,,,,,,
,,,,,,,,,,,,,
,,,,,,,,,,,,,
,,,,,,,,,,,,,
,,,,,,,,,,,,,
,,,,,,,,,,,,,
,,,,,,,,,,,,,
,,,,,,,,,,,,,
,,,,,,,,,,,,,
,,,,,,,,,,,,,
,,,,,,,,,,,,,
,,,,,,,,,,,,,
,,,,,,,,,,,,,
,,,,,,,,,,,,,
,,,,,,,,,,,,,
,,,,,,,,,,,,,
,,,,,,,,,,,,,
,,,,,,,,,,,,,
,,,,,,,,,,,,,
,,,,,,,,,,,,,
,,,,,,,,,,,,,
,,,,,,,,,,,,,
,,,,,,,,,,,,,
,,,,,,,,,,,,,
,,,,,,,,,,,,,
,,,,,,,,,,,,,
,,,,,,,,,,,,,
,,,,,,,,,,,,,
,,,,,,,,,,,,,
,,,,,,,,,,,,,
,,,,,,,,,,,,,
,,,,,,,,,,,,,
,,,,,,,,,,,,,
,,,,,,,,,,,,,
,,,,,,,,,,,,,
,,,,,,,,,,,,,
,,,,,,,,,,,,,
,,,,,,,,,,,,,
,,,,,,,,,,,,,
,,,,,,,,,,,,,
,,,,,,,,,,,,,
,,,,,,,,,,,,,
,,,,,,,,,,,,,
,,,,,,,,,,,,,
,,,,,,,,,,,,,
,,,,,,,,,,,,,
,,,,,,,,,,,,,
,,,,,,,,,,,,,
,,,,,,,,,,,,,
,,,,,,,,,,,,,
,,,,,,,,,,,,,
,,,,,,,,,,,,,
,,,,,,,,,,,,,
,,,,,,,,,,,,,
,,,,,,,,,,,,,
,,,,,,,,,,,,,
,,,,,,,,,,,,,
,,,,,,,,,,,,,
,,,,,,,,,,,,,
,,,,,,,,,,,,,
,,,,,,,,,,,,,
,,,,,,,,,,,,,
,,,,,,,,,,,,,
,,,,,,,,,,,,,
,,,,,,,,,,,,,
,,,,,,,,,,,,,
,,,,,,,,,,,,,
,,,,,,,,,,,,,
,,,,,,,,,,,,,
,,,,,,,,,,,,,
,,,,,,,,,,,,,
,,,,,,,,,,,,,
,,,,,,,,,,,,,
,,,,,,,,,,,,,
,,,,,,,,,,,,,
,,,,,,,,,,,,,
,,,,,,,,,,,,,
,,,,,,,,,,,,,
,,,,,,,,,,,,,
,,,,,,,,,,,,,
,,,,,,,,,,,,,
,,,,,,,,,,,,,
,,,,,,,,,,,,,
,,,,,,,,,,,,,
,,,,,,,,,,,,,
,,,,,,,,,,,,,
,,,,,,,,,,,,,
,,,,,,,,,,,,,
,,,,,,,,,,,,,
,,,,,,,,,,,,,
,,,,,,,,,,,,,
,,,,,,,,,,,,,
,,,,,,,,,,,,,
,,,,,,,,,,,,,
,,,,,,,,,,,,,
,,,,,,,,,,,,,
,,,,,,,,,,,,,
,,,,,,,,,,,,,
,,,,,,,,,,,,,
,,,,,,,,,,,,,
,,,,,,,,,,,,,
,,,,,,,,,,,,,
,,,,,,,,,,,,,
,,,,,,,,,,,,,
,,,,,,,,,,,,,
,,,,,,,,,,,,,
,,,,,,,,,,,,,
,,,,,,,,,,,,,
,,,,,,,,,,,,,
,,,,,,,,,,,,,
,,,,,,,,,,,,,
,,,,,,,,,,,,,
,,,,,,,,,,,,,
,,,,,,,,,,,,,
,,,,,,,,,,,,,
,,,,,,,,,,,,,
,,,,,,,,,,,,,
,,,,,,,,,,,,,
,,,,,,,,,,,,,
,,,,,,,,,,,,,
,,,,,,,,,,,,,
,,,,,,,,,,,,,
,,,,,,,,,,,,,
,,,,,,,,,,,,,
,,,,,,,,,,,,,
,,,,,,,,,,,,,
,,,,,,,,,,,,,
,,,,,,,,,,,,,
,,,,,,,,,,,,,
,,,,,,,,,,,,,
,,,,,,,,,,,,,
,,,,,,,,,,,,,
,,,,,,,,,,,,,
,,,,,,,,,,,,,
,,,,,,,,,,,,,
,,,,,,,,,,,,,
,,,,,,,,,,,,,
,,,,,,,,,,,,,
,,,,,,,,,,,,,
,,,,,,,,,,,,,
,,,,,,,,,,,,,
,,,,,,,,,,,,,
,,,,,,,,,,,,,
,,,,,,,,,,,,,
,,,,,,,,,,,,,
,,,,,,,,,,,,,
,,,,,,,,,,,,,
,,,,,,,,,,,,,
,,,,,,,,,,,,,
,,,,,,,,,,,,,
,,,,,,,,,,,,,
,,,,,,,,,,,,,
,,,,,,,,,,,,,
,,,,,,,,,,,,,
,,,,,,,,,,,,,
,,,,,,,,,,,,,
,,,,,,,,,,,,,
,,,,,,,,,,,,,
,,,,,,,,,,,,,
,,,,,,,,,,,,,
,,,,,,,,,,,,,
,,,,,,,,,,,,,
,,,,,,,,,,,,,
,,,,,,,,,,,,,
,,,,,,,,,,,,,
,,,,,,,,,,,,,
,,,,,,,,,,,,,
,,,,,,,,,,,,,
,,,,,,,,,,,,,
,,,,,,,,,,,,,
,,,,,,,,,,,,,
,,,,,,,,,,,,,
,,,,,,,,,,,,,
,,,,,,,,,,,,,
,,,,,,,,,,,,,
,,,,,,,,,,,,,
,,,,,,,,,,,,,
,,,,,,,,,,,,,
,,,,,,,,,,,,,
,,,,,,,,,,,,,
,,,,,,,,,,,,,
,,,,,,,,,,,,,
,,,,,,,,,,,,,
,,,,,,,,,,,,,
,,,,,,,,,,,,,
,,,,,,,,,,,,,
,,,,,,,,,,,,,
,,,,,,,,,,,,,
,,,,,,,,,,,,,
,,,,,,,,,,,,,
,,,,,,,,,,,,,
,,,,,,,,,,,,,
,,,,,,,,,,,,,
,,,,,,,,,,,,,
,,,,,,,,,,,,,
,,,,,,,,,,,,,
,,,,,,,,,,,,,
,,,,,,,,,,,,,
,,,,,,,,,,,,,
,,,,,,,,,,,,,
,,,,,,,,,,,,,
,,,,,,,,,,,,,
,,,,,,,,,,,,,
,,,,,,,,,,,,,
,,,,,,,,,,,,,
,,,,,,,,,,,,,
,,,,,,,,,,,,,
,,,,,,,,,,,,,
,,,,,,,,,,,,,
,,,,,,,,,,,,,
,,,,,,,,,,,,,
,,,,,,,,,,,,,
,,,,,,,,,,,,,
,,,,,,,,,,,,,
,,,,,,,,,,,,,
,,,,,,,,,,,,,
,,,,,,,,,,,,,
,,,,,,,,,,,,,
,,,,,,,,,,,,,
,,,,,,,,,,,,,
,,,,,,,,,,,,,
,,,,,,,,,,,,,
,,,,,,,,,,,,,
,,,,,,,,,,,,,
,,,,,,,,,,,,,
,,,,,,,,,,,,,
,,,,,,,,,,,,,
,,,,,,,,,,,,,
,,,,,,,,,,,,,
,,,,,,,,,,,,,
,,,,,,,,,,,,,
,,,,,,,,,,,,,
,,,,,,,,,,,,,
,,,,,,,,,,,,,
,,,,,,,,,,,,,
,,,,,,,,,,,,,
,,,,,,,,,,,,,
,,,,,,,,,,,,,
,,,,,,,,,,,,,
,,,,,,,,,,,,,
,,,,,,,,,,,,,
,,,,,,,,,,,,,
,,,,,,,,,,,,,
,,,,,,,,,,,,,
,,,,,,,,,,,,,
,,,,,,,,,,,,,
,,,,,,,,,,,,,
,,,,,,,,,,,,,
,,,,,,,,,,,,,
,,,,,,,,,,,,,
,,,,,,,,,,,,,
,,,,,,,,,,,,,
,,,,,,,,,,,,,
,,,,,,,,,,,,,
,,,,,,,,,,,,,
,,,,,,,,,,,,,
,,,,,,,,,,,,,
,,,,,,,,,,,,,
,,,,,,,,,,,,,
,,,,,,,,,,,,,
,,,,,,,,,,,,,
,,,,,,,,,,,,,
,,,,,,,,,,,,,
,,,,,,,,,,,,,
,,,,,,,,,,,,,
,,,,,,,,,,,,,
,,,,,,,,,,,,,
,,,,,,,,,,,,,
,,,,,,,,,,,,,
,,,,,,,,,,,,,
,,,,,,,,,,,,,
,,,,,,,,,,,,,
,,,,,,,,,,,,,
,,,,,,,,,,,,,
,,,,,,,,,,,,,
,,,,,,,,,,,,,
,,,,,,,,,,,,,
,,,,,,,,,,,,,
,,,,,,,,,,,,,
,,,,,,,,,,,,,
,,,,,,,,,,,,,
,,,,,,,,,,,,,
,,,,,,,,,,,,,
,,,,,,,,,,,,,
,,,,,,,,,,,,,
,,,,,,,,,,,,,
,,,,,,,,,,,,,
,,,,,,,,,,,,,
,,,,,,,,,,,,,
,,,,,,,,,,,,,
,,,,,,,,,,,,,
,,,,,,,,,,,,,
,,,,,,,,,,,,,
,,,,,,,,,,,,,
,,,,,,,,,,,,,
,,,,,,,,,,,,,
,,,,,,,,,,,,,
,,,,,,,,,,,,,
,,,,,,,,,,,,,
,,,,,,,,,,,,,
,,,,,,,,,,,,,
,,,,,,,,,,,,,
,,,,,,,,,,,,,
,,,,,,,,,,,,,
,,,,,,,,,,,,,
,,,,,,,,,,,,,
,,,,,,,,,,,,,
,,,,,,,,,,,,,
,,,,,,,,,,,,,
,,,,,,,,,,,,,
,,,,,,,,,,,,,
,,,,,,,,,,,,,
,,,,,,,,,,,,,
,,,,,,,,,,,,,
,,,,,,,,,,,,,
,,,,,,,,,,,,,
,,,,,,,,,,,,,
,,,,,,,,,,,,,
,,,,,,,,,,,,,
,,,,,,,,,,,,,
,,,,,,,,,,,,,
,,,,,,,,,,,,,
,,,,,,,,,,,,,
,,,,,,,,,,,,,
,,,,,,,,,,,,,
,,,,,,,,,,,,,
,,,,,,,,,,,,,
,,,,,,,,,,,,,
,,,,,,,,,,,,,
,,,,,,,,,,,,,
,,,,,,,,,,,,,
,,,,,,,,,,,,,
,,,,,,,,,,,,,
,,,,,,,,,,,,,
,,,,,,,,,,,,,
,,,,,,,,,,,,,
,,,,,,,,,,,,,
,,,,,,,,,,,,,
,,,,,,,,,,,,,
,,,,,,,,,,,,,
,,,,,,,,,,,,,
,,,,,,,,,,,,,
,,,,,,,,,,,,,
,,,,,,,,,,,,,
,,,,,,,,,,,,,
,,,,,,,,,,,,,
,,,,,,,,,,,,,
,,,,,,,,,,,,,
,,,,,,,,,,,,,
,,,,,,,,,,,,,
,,,,,,,,,,,,,
,,,,,,,,,,,,,
,,,,,,,,,,,,,
,,,,,,,,,,,,,
,,,,,,,,,,,,,
,,,,,,,,,,,,,
,,,,,,,,,,,,,
,,,,,,,,,,,,,
,,,,,,,,,,,,,
,,,,,,,,,,,,,
,,,,,,,,,,,,,
,,,,,,,,,,,,,
,,,,,,,,,,,,,
,,,,,,,,,,,,,
,,,,,,,,,,,,,
,,,,,,,,,,,,,
,,,,,,,,,,,,,
,,,,,,,,,,,,,
,,,,,,,,,,,,,
,,,,,,,,,,,,,
,,,,,,,,,,,,,
,,,,,,,,,,,,,
,,,,,,,,,,,,,
,,,,,,,,,,,,,
,,,,,,,,,,,,,
,,,,,,,,,,,,,
,,,,,,,,,,,,,
,,,,,,,,,,,,,
,,,,,,,,,,,,,
,,,,,,,,,,,,,
,,,,,,,,,,,,,
,,,,,,,,,,,,,
,,,,,,,,,,,,,
,,,,,,,,,,,,,
,,,,,,,,,,,,,
,,,,,,,,,,,,,
,,,,,,,,,,,,,
,,,,,,,,,,,,,
,,,,,,,,,,,,,
,,,,,,,,,,,,,
,,,,,,,,,,,,,
,,,,,,,,,,,,,
,,,,,,,,,,,,,
,,,,,,,,,,,,,
,,,,,,,,,,,,,
,,,,,,,,,,,,,
,,,,,,,,,,,,,
,,,,,,,,,,,,,
,,,,,,,,,,,,,
,,,,,,,,,,,,,
,,,,,,,,,,,,,
,,,,,,,,,,,,,
,,,,,,,,,,,,,
,,,,,,,,,,,,,
,,,,,,,,,,,,,
,,,,,,,,,,,,,
,,,,,,,,,,,,,
,,,,,,,,,,,,,
,,,,,,,,,,,,,
,,,,,,,,,,,,,
,,,,,,,,,,,,,
,,,,,,,,,,,,,
,,,,,,,,,,,,,
,,,,,,,,,,,,,
,,,,,,,,,,,,,
,,,,,,,,,,,,,
,,,,,,,,,,,,,
,,,,,,,,,,,,,
,,,,,,,,,,,,,
,,,,,,,,,,,,,
,,,,,,,,,,,,,
,,,,,,,,,,,,,
,,,,,,,,,,,,,
,,,,,,,,,,,,,
,,,,,,,,,,,,,
,,,,,,,,,,,,,
,,,,,,,,,,,,,
,,,,,,,,,,,,,
,,,,,,,,,,,,,
,,,,,,,,,,,,,
,,,,,,,,,,,,,
,,,,,,,,,,,,,
,,,,,,,,,,,,,
,,,,,,,,,,,,,
,,,,,,,,,,,,,
,,,,,,,,,,,,,
,,,,,,,,,,,,,
,,,,,,,,,,,,,
,,,,,,,,,,,,,
,,,,,,,,,,,,,
,,,,,,,,,,,,,
,,,,,,,,,,,,,
,,,,,,,,,,,,,
,,,,,,,,,,,,,
,,,,,,,,,,,,,
,,,,,,,,,,,,,
,,,,,,,,,,,,,
,,,,,,,,,,,,,
,,,,,,,,,,,,,
,,,,,,,,,,,,,
,,,,,,,,,,,,,
,,,,,,,,,,,,,
,,,,,,,,,,,,,
,,,,,,,,,,,,,
,,,,,,,,,,,,,
,,,,,,,,,,,,,
,,,,,,,,,,,,,
,,,,,,,,,,,,,
,,,,,,,,,,,,,
,,,,,,,,,,,,,
,,,,,,,,,,,,,
,,,,,,,,,,,,,
,,,,,,,,,,,,,
,,,,,,,,,,,,,
,,,,,,,,,,,,,
,,,,,,,,,,,,,
,,,,,,,,,,,,,
,,,,,,,,,,,,,
,,,,,,,,,,,,,
,,,,,,,,,,,,,
,,,,,,,,,,,,,
,,,,,,,,,,,,,
,,,,,,,,,,,,,
,,,,,,,,,,,,,
,,,,,,,,,,,,,
,,,,,,,,,,,,,
,,,,,,,,,,,,,
,,,,,,,,,,,,,
,,,,,,,,,,,,,
,,,,,,,,,,,,,
,,,,,,,,,,,,,
,,,,,,,,,,,,,
,,,,,,,,,,,,,
,,,,,,,,,,,,,
,,,,,,,,,,,,,
,,,,,,,,,,,,,
,,,,,,,,,,,,,
,,,,,,,,,,,,,
,,,,,,,,,,,,,
,,,,,,,,,,,,,
,,,,,,,,,,,,,
,,,,,,,,,,,,,
,,,,,,,,,,,,,
,,,,,,,,,,,,,
,,,,,,,,,,,,,
,,,,,,,,,,,,,
,,,,,,,,,,,,,
,,,,,,,,,,,,,
,,,,,,,,,,,,,
,,,,,,,,,,,,,
,,,,,,,,,,,,,
,,,,,,,,,,,,,
,,,,,,,,,,,,,
,,,,,,,,,,,,,
,,,,,,,,,,,,,
,,,,,,,,,,,,,
,,,,,,,,,,,,,
,,,,,,,,,,,,,
,,,,,,,,,,,,,
,,,,,,,,,,,,,
,,,,,,,,,,,,,
,,,,,,,,,,,,,
,,,,,,,,,,,,,
,,,,,,,,,,,,,
,,,,,,,,,,,,,
,,,,,,,,,,,,,
,,,,,,,,,,,,,
,,,,,,,,,,,,,
,,,,,,,,,,,,,
,,,,,,,,,,,,,
,,,,,,,,,,,,,
,,,,,,,,,,,,,
,,,,,,,,,,,,,
,,,,,,,,,,,,,
,,,,,,,,,,,,,
,,,,,,,,,,,,,
,,,,,,,,,,,,,
,,,,,,,,,,,,,
,,,,,,,,,,,,,
,,,,,,,,,,,,,
,,,,,,,,,,,,,
,,,,,,,,,,,,,
,,,,,,,,,,,,,
,,,,,,,,,,,,,
,,,,,,,,,,,,,
,,,,,,,,,,,,,
,,,,,,,,,,,,,
,,,,,,,,,,,,,
,,,,,,,,,,,,,
,,,,,,,,,,,,,
,,,,,,,,,,,,,
,,,,,,,,,,,,,
,,,,,,,,,,,,,
,,,,,,,,,,,,,
,,,,,,,,,,,,,
,,,,,,,,,,,,,
,,,,,,,,,,,,,
,,,,,,,,,,,,,
,,,,,,,,,,,,,
,,,,,,,,,,,,,
,,,,,,,,,,,,,
,,,,,,,,,,,,,
,,,,,,,,,,,,,
,,,,,,,,,,,,,
,,,,,,,,,,,,,
,,,,,,,,,,,,,
,,,,,,,,,,,,,
,,,,,,,,,,,,,
,,,,,,,,,,,,,
,,,,,,,,,,,,,
,,,,,,,,,,,,,
,,,,,,,,,,,,,
,,,,,,,,,,,,,
,,,,,,,,,,,,,
,,,,,,,,,,,,,
,,,,,,,,,,,,,
,,,,,,,,,,,,,
,,,,,,,,,,,,,
,,,,,,,,,,,,,
,,,,,,,,,,,,,
,,,,,,,,,,,,,
,,,,,,,,,,,,,
,,,,,,,,,,,,,
,,,,,,,,,,,,,
,,,,,,,,,,,,,
,,,,,,,,,,,,,
,,,,,,,,,,,,,
,,,,,,,,,,,,,
,,,,,,,,,,,,,
,,,,,,,,,,,,,
,,,,,,,,,,,,,
,,,,,,,,,,,,,
,,,,,,,,,,,,,
,,,,,,,,,,,,,
,,,,,,,,,,,,,
,,,,,,,,,,,,,
,,,,,,,,,,,,,
,,,,,,,,,,,,,
,,,,,,,,,,,,,
,,,,,,,,,,,,,
,,,,,,,,,,,,,
,,,,,,,,,,,,,
,,,,,,,,,,,,,
,,,,,,,,,,,,,
,,,,,,,,,,,,,
,,,,,,,,,,,,,
,,,,,,,,,,,,,
,,,,,,,,,,,,,
,,,,,,,,,,,,,
,,,,,,,,,,,,,
,,,,,,,,,,,,,
,,,,,,,,,,,,,
,,,,,,,,,,,,,
,,,,,,,,,,,,,
,,,,,,,,,,,,,
,,,,,,,,,,,,,
,,,,,,,,,,,,,
,,,,,,,,,,,,,
,,,,,,,,,,,,,
,,,,,,,,,,,,,
,,,,,,,,,,,,,
,,,,,,,,,,,,,
,,,,,,,,,,,,,
,,,,,,,,,,,,,
,,,,,,,,,,,,,
,,,,,,,,,,,,,
,,,,,,,,,,,,,
,,,,,,,,,,,,,
,,,,,,,,,,,,,
,,,,,,,,,,,,,
,,,,,,,,,,,,,
,,,,,,,,,,,,,
,,,,,,,,,,,,,
,,,,,,,,,,,,,
,,,,,,,,,,,,,
,,,,,,,,,,,,,
,,,,,,,,,,,,,
,,,,,,,,,,,,,
,,,,,,,,,,,,,
,,,,,,,,,,,,,
,,,,,,,,,,,,,
,,,,,,,,,,,,,
,,,,,,,,,,,,,
,,,,,,,,,,,,,
,,,,,,,,,,,,,
,,,,,,,,,,,,,
,,,,,,,,,,,,,
,,,,,,,,,,,,,
,,,,,,,,,,,,,
,,,,,,,,,,,,,
,,,,,,,,,,,,,
,,,,,,,,,,,,,
,,,,,,,,,,,,,
,,,,,,,,,,,,,
,,,,,,,,,,,,,
,,,,,,,,,,,,,
,,,,,,,,,,,,,
,,,,,,,,,,,,,
,,,,,,,,,,,,,
,,,,,,,,,,,,,
,,,,,,,,,,,,,
,,,,,,,,,,,,,
,,,,,,,,,,,,,
,,,,,,,,,,,,,
,,,,,,,,,,,,,
,,,,,,,,,,,,,
,,,,,,,,,,,,,
,,,,,,,,,,,,,
,,,,,,,,,,,,,
,,,,,,,,,,,,,
,,,,,,,,,,,,,
,,,,,,,,,,,,,
,,,,,,,,,,,,,
,,,,,,,,,,,,,
,,,,,,,,,,,,,
,,,,,,,,,,,,,
,,,,,,,,,,,,,
,,,,,,,,,,,,,
,,,,,,,,,,,,,
,,,,,,,,,,,,,
,,,,,,,,,,,,,
,,,,,,,,,,,,,
,,,,,,,,,,,,,
,,,,,,,,,,,,,
,,,,,,,,,,,,,
,,,,,,,,,,,,,
,,,,,,,,,,,,,
,,,,,,,,,,,,,
,,,,,,,,,,,,,
,,,,,,,,,,,,,
,,,,,,,,,,,,,
,,,,,,,,,,,,,
,,,,,,,,,,,,,
,,,,,,,,,,,,,
,,,,,,,,,,,,,
,,,,,,,,,,,,,
,,,,,,,,,,,,,
,,,,,,,,,,,,,
,,,,,,,,,,,,,
,,,,,,,,,,,,,
,,,,,,,,,,,,,
,,,,,,,,,,,,,
,,,,,,,,,,,,,
,,,,,,,,,,,,,
,,,,,,,,,,,,,
,,,,,,,,,,,,,
,,,,,,,,,,,,,
,,,,,,,,,,,,,
,,,,,,,,,,,,,
,,,,,,,,,,,,,
,,,,,,,,,,,,,
,,,,,,,,,,,,,
,,,,,,,,,,,,,
,,,,,,,,,,,,,
,,,,,,,,,,,,,
,,,,,,,,,,,,,
,,,,,,,,,,,,,
,,,,,,,,,,,,,
,,,,,,,,,,,,,
,,,,,,,,,,,,,
,,,,,,,,,,,,,
,,,,,,,,,,,,,
,,,,,,,,,,,,,
,,,,,,,,,,,,,
,,,,,,,,,,,,,
,,,,,,,,,,,,,
,,,,,,,,,,,,,
,,,,,,,,,,,,,
,,,,,,,,,,,,,
,,,,,,,,,,,,,
,,,,,,,,,,,,,
,,,,,,,,,,,,,
,,,,,,,,,,,,,
,,,,,,,,,,,,,
,,,,,,,,,,,,,
,,,,,,,,,,,,,
,,,,,,,,,,,,,
,,,,,,,,,,,,,
,,,,,,,,,,,,,
,,,,,,,,,,,,,
,,,,,,,,,,,,,
,,,,,,,,,,,,,
,,,,,,,,,,,,,
,,,,,,,,,,,,,
,,,,,,,,,,,,,
,,,,,,,,,,,,,
,,,,,,,,,,,,,
,,,,,,,,,,,,,
,,,,,,,,,,,,,
,,,,,,,,,,,,,
,,,,,,,,,,,,,
,,,,,,,,,,,,,
,,,,,,,,,,,,,
,,,,,,,,,,,,,
,,,,,,,,,,,,,
,,,,,,,,,,,,,
,,,,,,,,,,,,,
,,,,,,,,,,,,,
,,,,,,,,,,,,,
,,,,,,,,,,,,,
,,,,,,,,,,,,,
,,,,,,,,,,,,,
,,,,,,,,,,,,,
,,,,,,,,,,,,,
,,,,,,,,,,,,,
,,,,,,,,,,,,,
,,,,,,,,,,,,,
,,,,,,,,,,,,,
,,,,,,,,,,,,,
,,,,,,,,,,,,,
,,,,,,,,,,,,,
,,,,,,,,,,,,,
,,,,,,,,,,,,,
,,,,,,,,,,,,,
,,,,,,,,,,,,,
,,,,,,,,,,,,,
,,,,,,,,,,,,,
,,,,,,,,,,,,,
,,,,,,,,,,,,,
,,,,,,,,,,,,,
,,,,,,,,,,,,,
,,,,,,,,,,,,,
,,,,,,,,,,,,,
,,,,,,,,,,,,,
,,,,,,,,,,,,,
,,,,,,,,,,,,,
,,,,,,,,,,,,,
,,,,,,,,,,,,,
,,,,,,,,,,,,,
,,,,,,,,,,,,,
,,,,,,,,,,,,,
,,,,,,,,,,,,,
,,,,,,,,,,,,,
,,,,,,,,,,,,,
,,,,,,,,,,,,,
,,,,,,,,,,,,,
,,,,,,,,,,,,,
,,,,,,,,,,,,,
,,,,,,,,,,,,,
,,,,,,,,,,,,,
,,,,,,,,,,,,,
,,,,,,,,,,,,,
,,,,,,,,,,,,,
,,,,,,,,,,,,,
,,,,,,,,,,,,,
,,,,,,,,,,,,,
,,,,,,,,,,,,,
,,,,,,,,,,,,,
,,,,,,,,,,,,,
,,,,,,,,,,,,,
,,,,,,,,,,,,,
,,,,,,,,,,,,,
,,,,,,,,,,,,,
,,,,,,,,,,,,,
,,,,,,,,,,,,,
,,,,,,,,,,,,,
,,,,,,,,,,,,,
,,,,,,,,,,,,,
,,,,,,,,,,,,,
,,,,,,,,,,,,,
,,,,,,,,,,,,,
,,,,,,,,,,,,,
,,,,,,,,,,,,,
,,,,,,,,,,,,,
,,,,,,,,,,,,,
,,,,,,,,,,,,,
,,,,,,,,,,,,,
,,,,,,,,,,,,,
,,,,,,,,,,,,,
,,,,,,,,,,,,,
,,,,,,,,,,,,,
,,,,,,,,,,,,,
,,,,,,,,,,,,,
,,,,,,,,,,,,,
,,,,,,,,,,,,,
,,,,,,,,,,,,,
,,,,,,,,,,,,,
,,,,,,,,,,,,,
,,,,,,,,,,,,,
,,,,,,,,,,,,,
,,,,,,,,,,,,,
,,,,,,,,,,,,,
,,,,,,,,,,,,,
,,,,,,,,,,,,,
,,,,,,,,,,,,,
,,,,,,,,,,,,,
,,,,,,,,,,,,,
,,,,,,,,,,,,,
,,,,,,,,,,,,,
,,,,,,,,,,,,,
,,,,,,,,,,,,,
,,,,,,,,,,,,,
,,,,,,,,,,,,,
,,,,,,,,,,,,,
,,,,,,,,,,,,,
,,,,,,,,,,,,,
,,,,,,,,,,,,,
,,,,,,,,,,,,,
,,,,,,,,,,,,,
,,,,,,,,,,,,,
,,,,,,,,,,,,,
,,,,,,,,,,,,,
,,,,,,,,,,,,,
,,,,,,,,,,,,,
,,,,,,,,,,,,,
,,,,,,,,,,,,,
,,,,,,,,,,,,,
,,,,,,,,,,,,,
,,,,,,,,,,,,,
,,,,,,,,,,,,,
,,,,,,,,,,,,,
,,,,,,,,,,,,,
,,,,,,,,,,,,,
,,,,,,,,,,,,,
,,,,,,,,,,,,,
,,,,,,,,,,,,,
,,,,,,,,,,,,,
,,,,,,,,,,,,,
,,,,,,,,,,,,,
,,,,,,,,,,,,,
,,,,,,,,,,,,,
,,,,,,,,,,,,,
,,,,,,,,,,,,,
,,,,,,,,,,,,,
,,,,,,,,,,,,,
,,,,,,,,,,,,,
,,,,,,,,,,,,,
,,,,,,,,,,,,,
,,,,,,,,,,,,,
,,,,,,,,,,,,,
,,,,,,,,,,,,,
,,,,,,,,,,,,,
,,,,,,,,,,,,,
,,,,,,,,,,,,,
,,,,,,,,,,,,,
,,,,,,,,,,,,,
,,,,,,,,,,,,,
,,,,,,,,,,,,,
,,,,,,,,,,,,,
,,,,,,,,,,,,,
,,,,,,,,,,,,,
,,,,,,,,,,,,,
,,,,,,,,,,,,,
,,,,,,,,,,,,,
,,,,,,,,,,,,,
,,,,,,,,,,,,,
,,,,,,,,,,,,,
,,,,,,,,,,,,,
,,,,,,,,,,,,,
,,,,,,,,,,,,,
,,,,,,,,,,,,,
,,,,,,,,,,,,,
,,,,,,,,,,,,,
,,,,,,,,,,,,,
,,,,,,,,,,,,,
,,,,,,,,,,,,,
,,,,,,,,,,,,,
,,,,,,,,,,,,,
,,,,,,,,,,,,,
,,,,,,,,,,,,,
,,,,,,,,,,,,,
,,,,,,,,,,,,,
,,,,,,,,,,,,,
,,,,,,,,,,,,,
,,,,,,,,,,,,,
,,,,,,,,,,,,,
,,,,,,,,,,,,,
,,,,,,,,,,,,,
,,,,,,,,,,,,,
,,,,,,,,,,,,,
,,,,,,,,,,,,,
,,,,,,,,,,,,,
,,,,,,,,,,,,,
,,,,,,,,,,,,,
,,,,,,,,,,,,,
,,,,,,,,,,,,,
,,,,,,,,,,,,,
,,,,,,,,,,,,,
,,,,,,,,,,,,,
,,,,,,,,,,,,,
,,,,,,,,,,,,,
,,,,,,,,,,,,,
,,,,,,,,,,,,,
,,,,,,,,,,,,,
,,,,,,,,,,,,,
,,,,,,,,,,,,,
,,,,,,,,,,,,,
,,,,,,,,,,,,,
,,,,,,,,,,,,,
,,,,,,,,,,,,,
,,,,,,,,,,,,,
,,,,,,,,,,,,,
,,,,,,,,,,,,,
,,,,,,,,,,,,,
,,,,,,,,,,,,,
,,,,,,,,,,,,,
,,,,,,,,,,,,,
,,,,,,,,,,,,,
,,,,,,,,,,,,,
,,,,,,,,,,,,,
,,,,,,,,,,,,,
,,,,,,,,,,,,,
,,,,,,,,,,,,,
,,,,,,,,,,,,,
,,,,,,,,,,,,,
,,,,,,,,,,,,,
,,,,,,,,,,,,,
,,,,,,,,,,,,,
,,,,,,,,,,,,,
,,,,,,,,,,,,,
,,,,,,,,,,,,,
,,,,,,,,,,,,,
,,,,,,,,,,,,,
,,,,,,,,,,,,,
,,,,,,,,,,,,,
,,,,,,,,,,,,,
,,,,,,,,,,,,,
,,,,,,,,,,,,,
,,,,,,,,,,,,,
,,,,,,,,,,,,,
,,,,,,,,,,,,,
,,,,,,,,,,,,,
,,,,,,,,,,,,,
,,,,,,,,,,,,,
,,,,,,,,,,,,,
,,,,,,,,,,,,,
,,,,,,,,,,,,,
,,,,,,,,,,,,,
,,,,,,,,,,,,,
,,,,,,,,,,,,,
,,,,,,,,,,,,,
,,,,,,,,,,,,,
,,,,,,,,,,,,,
,,,,,,,,,,,,,
,,,,,,,,,,,,,
,,,,,,,,,,,,,
,,,,,,,,,,,,,
,,,,,,,,,,,,,
,,,,,,,,,,,,,
,,,,,,,,,,,,,
,,,,,,,,,,,,,
,,,,,,,,,,,,,
,,,,,,,,,,,,,
,,,,,,,,,,,,,
,,,,,,,,,,,,,
,,,,,,,,,,,,,
,,,,,,,,,,,,,
,,,,,,,,,,,,,
,,,,,,,,,,,,,
,,,,,,,,,,,,,
,,,,,,,,,,,,,
,,,,,,,,,,,,,
,,,,,,,,,,,,,
,,,,,,,,,,,,,
,,,,,,,,,,,,,
,,,,,,,,,,,,,
,,,,,,,,,,,,,
,,,,,,,,,,,,,
,,,,,,,,,,,,,
,,,,,,,,,,,,,
,,,,,,,,,,,,,
,,,,,,,,,,,,,
,,,,,,,,,,,,,
,,,,,,,,,,,,,
,,,,,,,,,,,,,
,,,,,,,,,,,,,
,,,,,,,,,,,,,
,,,,,,,,,,,,,
,,,,,,,,,,,,,
,,,,,,,,,,,,,
,,,,,,,,,,,,,
,,,,,,,,,,,,,
,,,,,,,,,,,,,
,,,,,,,,,,,,,
,,,,,,,,,,,,,
,,,,,,,,,,,,,
,,,,,,,,,,,,,
,,,,,,,,,,,,,
,,,,,,,,,,,,,
,,,,,,,,,,,,,
,,,,,,,,,,,,,
,,,,,,,,,,,,,
,,,,,,,,,,,,,
,,,,,,,,,,,,,
,,,,,,,,,,,,,
,,,,,,,,,,,,,
,,,,,,,,,,,,,
,,,,,,,,,,,,,
,,,,,,,,,,,,,
,,,,,,,,,,,,,
,,,,,,,,,,,,,
,,,,,,,,,,,,,
,,,,,,,,,,,,,
,,,,,,,,,,,,,
,,,,,,,,,,,,,
,,,,,,,,,,,,,
,,,,,,,,,,,,,
,,,,,,,,,,,,,
,,,,,,,,,,,,,
,,,,,,,,,,,,,
,,,,,,,,,,,,,
,,,,,,,,,,,,,
,,,,,,,,,,,,,
,,,,,,,,,,,,,
,,,,,,,,,,,,,
,,,,,,,,,,,,,
,,,,,,,,,,,,,
,,,,,,,,,,,,,
,,,,,,,,,,,,,
,,,,,,,,,,,,,
,,,,,,,,,,,,,
,,,,,,,,,,,,,
,,,,,,,,,,,,,
,,,,,,,,,,,,,
,,,,,,,,,,,,,
,,,,,,,,,,,,,
,,,,,,,,,,,,,
,,,,,,,,,,,,,
,,,,,,,,,,,,,
,,,,,,,,,,,,,
,,,,,,,,,,,,,
,,,,,,,,,,,,,
,,,,,,,,,,,,,
,,,,,,,,,,,,,
,,,,,,,,,,,,,
,,,,,,,,,,,,,
,,,,,,,,,,,,,
,,,,,,,,,,,,,
,,,,,,,,,,,,,
,,,,,,,,,,,,,
,,,,,,,,,,,,,
,,,,,,,,,,,,,
,,,,,,,,,,,,,
,,,,,,,,,,,,,
,,,,,,,,,,,,,
,,,,,,,,,,,,,
,,,,,,,,,,,,,
,,,,,,,,,,,,,
,,,,,,,,,,,,,
,,,,,,,,,,,,,
,,,,,,,,,,,,,
,,,,,,,,,,,,,
,,,,,,,,,,,,,
,,,,,,,,,,,,,
,,,,,,,,,,,,,
,,,,,,,,,,,,,
,,,,,,,,,,,,,
,,,,,,,,,,,,,
,,,,,,,,,,,,,
,,,,,,,,,,,,,
,,,,,,,,,,,,,
,,,,,,,,,,,,,
,,,,,,,,,,,,,
,,,,,,,,,,,,,
,,,,,,,,,,,,,
,,,,,,,,,,,,,
,,,,,,,,,,,,,
,,,,,,,,,,,,,
,,,,,,,,,,,,,
,,,,,,,,,,,,,
,,,,,,,,,,,,,
,,,,,,,,,,,,,
,,,,,,,,,,,,,
,,,,,,,,,,,,,
,,,,,,,,,,,,,
,,,,,,,,,,,,,
,,,,,,,,,,,,,
,,,,,,,,,,,,,
,,,,,,,,,,,,,
,,,,,,,,,,,,,
,,,,,,,,,,,,,
,,,,,,,,,,,,,
,,,,,,,,,,,,,
,,,,,,,,,,,,,
,,,,,,,,,,,,,
,,,,,,,,,,,,,
,,,,,,,,,,,,,
,,,,,,,,,,,,,
,,,,,,,,,,,,,
,,,,,,,,,,,,,
,,,,,,,,,,,,,
,,,,,,,,,,,,,
,,,,,,,,,,,,,
,,,,,,,,,,,,,
,,,,,,,,,,,,,
,,,,,,,,,,,,,
,,,,,,,,,,,,,
,,,,,,,,,,,,,
,,,,,,,,,,,,,
,,,,,,,,,,,,,
,,,,,,,,,,,,,
,,,,,,,,,,,,,
,,,,,,,,,,,,,
,,,,,,,,,,,,,
,,,,,,,,,,,,,
,,,,,,,,,,,,,
,,,,,,,,,,,,,
,,,,,,,,,,,,,
,,,,,,,,,,,,,
,,,,,,,,,,,,,
,,,,,,,,,,,,,
,,,,,,,,,,,,,
,,,,,,,,,,,,,
,,,,,,,,,,,,,
,,,,,,,,,,,,,
,,,,,,,,,,,,,
,,,,,,,,,,,,,
,,,,,,,,,,,,,
,,,,,,,,,,,,,
,,,,,,,,,,,,,
,,,,,,,,,,,,,
,,,,,,,,,,,,,
,,,,,,,,,,,,,
,,,,,,,,,,,,,
,,,,,,,,,,,,,
,,,,,,,,,,,,,
,,,,,,,,,,,,,
,,,,,,,,,,,,,
,,,,,,,,,,,,,
,,,,,,,,,,,,,
,,,,,,,,,,,,,
,,,,,,,,,,,,,
,,,,,,,,,,,,,
,,,,,,,,,,,,,
,,,,,,,,,,,,,
,,,,,,,,,,,,,
,,,,,,,,,,,,,
,,,,,,,,,,,,,
,,,,,,,,,,,,,
,,,,,,,,,,,,,
,,,,,,,,,,,,,
,,,,,,,,,,,,,
,,,,,,,,,,,,,
,,,,,,,,,,,,,
,,,,,,,,,,,,,
,,,,,,,,,,,,,
,,,,,,,,,,,,,
,,,,,,,,,,,,,
,,,,,,,,,,,,,
,,,,,,,,,,,,,
,,,,,,,,,,,,,
,,,,,,,,,,,,,
,,,,,,,,,,,,,
,,,,,,,,,,,,,
,,,,,,,,,,,,,
,,,,,,,,,,,,,
,,,,,,,,,,,,,
,,,,,,,,,,,,,
,,,,,,,,,,,,,
,,,,,,,,,,,,,
,,,,,,,,,,,,,
,,,,,,,,,,,,,
,,,,,,,,,,,,,
,,,,,,,,,,,,,
,,,,,,,,,,,,,
,,,,,,,,,,,,,
,,,,,,,,,,,,,
,,,,,,,,,,,,,
,,,,,,,,,,,,,
,,,,,,,,,,,,,
,,,,,,,,,,,,,
,,,,,,,,,,,,,
,,,,,,,,,,,,,
,,,,,,,,,,,,,
,,,,,,,,,,,,,
,,,,,,,,,,,,,
,,,,,,,,,,,,,
,,,,,,,,,,,,,
,,,,,,,,,,,,,
,,,,,,,,,,,,,
,,,,,,,,,,,,,
,,,,,,,,,,,,,
,,,,,,,,,,,,,
,,,,,,,,,,,,,
,,,,,,,,,,,,,
,,,,,,,,,,,,,
,,,,,,,,,,,,,
,,,,,,,,,,,,,
,,,,,,,,,,,,,
,,,,,,,,,,,,,
,,,,,,,,,,,,,
,,,,,,,,,,,,,
,,,,,,,,,,,,,
,,,,,,,,,,,,,
,,,,,,,,,,,,,
,,,,,,,,,,,,,
,,,,,,,,,,,,,
,,,,,,,,,,,,,
,,,,,,,,,,,,,
,,,,,,,,,,,,,
,,,,,,,,,,,,,
,,,,,,,,,,,,,
,,,,,,,,,,,,,
,,,,,,,,,,,,,
,,,,,,,,,,,,,
,,,,,,,,,,,,,
,,,,,,,,,,,,,
,,,,,,,,,,,,,
,,,,,,,,,,,,,
,,,,,,,,,,,,,
,,,,,,,,,,,,,
,,,,,,,,,,,,,
,,,,,,,,,,,,,
,,,,,,,,,,,,,
,,,,,,,,,,,,,
,,,,,,,,,,,,,
,,,,,,,,,,,,,
,,,,,,,,,,,,,
,,,,,,,,,,,,,
,,,,,,,,,,,,,
,,,,,,,,,,,,,
,,,,,,,,,,,,,
,,,,,,,,,,,,,
,,,,,,,,,,,,,
,,,,,,,,,,,,,
,,,,,,,,,,,,,
,,,,,,,,,,,,,
,,,,,,,,,,,,,
,,,,,,,,,,,,,
,,,,,,,,,,,,,
,,,,,,,,,,,,,
,,,,,,,,,,,,,
,,,,,,,,,,,,,
,,,,,,,,,,,,,
,,,,,,,,,,,,,
,,,,,,,,,,,,,
,,,,,,,,,,,,,
,,,,,,,,,,,,,
,,,,,,,,,,,,,
,,,,,,,,,,,,,
,,,,,,,,,,,,,
,,,,,,,,,,,,,
,,,,,,,,,,,,,
,,,,,,,,,,,,,
,,,,,,,,,,,,,
,,,,,,,,,,,,,
,,,,,,,,,,,,,
,,,,,,,,,,,,,
,,,,,,,,,,,,,
,,,,,,,,,,,,,
,,,,,,,,,,,,,
,,,,,,,,,,,,,
,,,,,,,,,,,,,
,,,,,,,,,,,,,
,,,,,,,,,,,,,
,,,,,,,,,,,,,
,,,,,,,,,,,,,
,,,,,,,,,,,,,
,,,,,,,,,,,,,
,,,,,,,,,,,,,
,,,,,,,,,,,,,
,,,,,,,,,,,,,
,,,,,,,,,,,,,
,,,,,,,,,,,,,
,,,,,,,,,,,,,
,,,,,,,,,,,,,
,,,,,,,,,,,,,
,,,,,,,,,,,,,
,,,,,,,,,,,,,
,,,,,,,,,,,,,
,,,,,,,,,,,,,
,,,,,,,,,,,,,
,,,,,,,,,,,,,
,,,,,,,,,,,,,
,,,,,,,,,,,,,
,,,,,,,,,,,,,
,,,,,,,,,,,,,
,,,,,,,,,,,,,
,,,,,,,,,,,,,
,,,,,,,,,,,,,
,,,,,,,,,,,,,